<?xml version="1.0" standalone="no"?>
 <!DOCTYPE svg PUBLIC "-//W3C//DTD SVG 1.1//EN" 
 "http://www.w3.org/Graphics/SVG/1.1/DTD/svg11.dtd"> 
<svg
  xmlns:svg="http://www.w3.org/2000/svg"
  xmlns="http://www.w3.org/2000/svg"
  xmlns:xlink="http://www.w3.org/1999/xlink"
  version="1.1"
  width="6.002020cm" height="5.219700cm" viewBox="0 0 23630 20550">
<title>SVG Picture created as 0515-ATtiny1614_A4982_stepper-F_Cu.svg date 2020/05/27 21:01:26 </title>
  <desc>Picture generated by PCBNEW </desc>
<g style="fill:#000000; fill-opacity:1;stroke:#000000; stroke-opacity:1;
stroke-linecap:round; stroke-linejoin:round;"
 transform="translate(0 0) scale(1 1)">
</g>
<g style="fill:#000000; fill-opacity:0.0; 
stroke:#000000; stroke-width:-0.000393701; stroke-opacity:1; 
stroke-linecap:round; stroke-linejoin:round;">
<g >
</g>
<g style="fill:#000000; fill-opacity:0.0; 
stroke:#000000; stroke-width:0; stroke-opacity:1; 
stroke-linecap:round; stroke-linejoin:round;">
</g>
<g style="fill:#000000; fill-opacity:1.0; 
stroke:#000000; stroke-width:0; stroke-opacity:1; 
stroke-linecap:round; stroke-linejoin:round;">
<path style="fill:#000000; fill-opacity:1.0; 
stroke:#000000; stroke-width:0; stroke-opacity:1; 
stroke-linecap:round; stroke-linejoin:round;fill-rule:evenodd;"
d="M 13651.6,4423.23
12982.3,4423.23
12982.3,3635.83
13651.6,3635.83
Z" /> 
<path style="fill:#000000; fill-opacity:1.0; 
stroke:#000000; stroke-width:0; stroke-opacity:1; 
stroke-linecap:round; stroke-linejoin:round;fill-rule:evenodd;"
d="M 14651.6,4423.23
13982.3,4423.23
13982.3,3635.83
14651.6,3635.83
Z" /> 
<path style="fill:#000000; fill-opacity:1.0; 
stroke:#000000; stroke-width:0; stroke-opacity:1; 
stroke-linecap:round; stroke-linejoin:round;fill-rule:evenodd;"
d="M 16651.6,4423.23
15982.3,4423.23
15982.3,3635.83
16651.6,3635.83
Z" /> 
<path style="fill:#000000; fill-opacity:1.0; 
stroke:#000000; stroke-width:0; stroke-opacity:1; 
stroke-linecap:round; stroke-linejoin:round;fill-rule:evenodd;"
d="M 15651.6,4423.23
14982.3,4423.23
14982.3,3635.83
15651.6,3635.83
Z" /> 
<path style="fill:#000000; fill-opacity:1.0; 
stroke:#000000; stroke-width:0; stroke-opacity:1; 
stroke-linecap:round; stroke-linejoin:round;fill-rule:evenodd;"
d="M 18651.6,4423.23
17982.3,4423.23
17982.3,3635.83
18651.6,3635.83
Z" /> 
<path style="fill:#000000; fill-opacity:1.0; 
stroke:#000000; stroke-width:0; stroke-opacity:1; 
stroke-linecap:round; stroke-linejoin:round;fill-rule:evenodd;"
d="M 17651.6,4423.23
16982.3,4423.23
16982.3,3635.83
17651.6,3635.83
Z" /> 
</g>
<g >
</g>
<g style="fill:#000000; fill-opacity:1.0; 
stroke:#000000; stroke-width:0; stroke-opacity:1; 
stroke-linecap:round; stroke-linejoin:round;">
<path style="fill:#000000; fill-opacity:1.0; 
stroke:#000000; stroke-width:0; stroke-opacity:1; 
stroke-linecap:round; stroke-linejoin:round;fill-rule:evenodd;"
d="M 21651.6,14525.6
20982.3,14525.6
20982.3,14053.1
21651.6,14053.1
Z" /> 
<path style="fill:#000000; fill-opacity:1.0; 
stroke:#000000; stroke-width:0; stroke-opacity:1; 
stroke-linecap:round; stroke-linejoin:round;fill-rule:evenodd;"
d="M 21651.6,13265.7
20982.3,13265.7
20982.3,12793.3
21651.6,12793.3
Z" /> 
</g>
<g >
</g>
<g style="fill:#000000; fill-opacity:1.0; 
stroke:#000000; stroke-width:0; stroke-opacity:1; 
stroke-linecap:round; stroke-linejoin:round;">
<path style="fill:#000000; fill-opacity:1.0; 
stroke:#000000; stroke-width:0; stroke-opacity:1; 
stroke-linecap:round; stroke-linejoin:round;fill-rule:evenodd;"
d="M 8732.28,15885.8
9401.58,15885.8
9401.58,16673.2
8732.28,16673.2
Z" /> 
<path style="fill:#000000; fill-opacity:1.0; 
stroke:#000000; stroke-width:0; stroke-opacity:1; 
stroke-linecap:round; stroke-linejoin:round;fill-rule:evenodd;"
d="M 7732.28,15885.8
8401.58,15885.8
8401.58,16673.2
7732.28,16673.2
Z" /> 
</g>
<g >
</g>
<g style="fill:#000000; fill-opacity:1.0; 
stroke:#000000; stroke-width:0; stroke-opacity:1; 
stroke-linecap:round; stroke-linejoin:round;">
<path style="fill:#000000; fill-opacity:1.0; 
stroke:#000000; stroke-width:0; stroke-opacity:1; 
stroke-linecap:round; stroke-linejoin:round;fill-rule:evenodd;"
d="M 9572.64,9749.49
9582.19,9750.91
9591.56,9753.25
9600.66,9756.51
9609.39,9760.64
9617.67,9765.6
9625.43,9771.36
9632.59,9777.84
9639.08,9785
9644.83,9792.76
9649.8,9801.04
9653.93,9809.78
9657.18,9818.87
9659.53,9828.24
9660.94,9837.79
9661.42,9847.44
9661.42,10211.6
9660.94,10221.3
9659.53,10230.8
9657.18,10240.2
9653.93,10249.3
9649.8,10258
9644.83,10266.3
9639.08,10274.1
9632.59,10281.2
9625.43,10287.7
9617.67,10293.5
9609.39,10298.4
9600.66,10302.5
9591.56,10305.8
9582.19,10308.1
9572.64,10309.6
9562.99,10310
9070.87,10310
9061.22,10309.6
9051.66,10308.1
9042.3,10305.8
9033.2,10302.5
9024.47,10298.4
9016.18,10293.5
9008.43,10287.7
9001.27,10281.2
8994.78,10274.1
8989.03,10266.3
8984.06,10258
8979.93,10249.3
8976.68,10240.2
8974.33,10230.8
8972.92,10221.3
8972.44,10211.6
8972.44,9847.44
8972.92,9837.79
8974.33,9828.24
8976.68,9818.87
8979.93,9809.78
8984.06,9801.04
8989.03,9792.76
8994.78,9785
9001.27,9777.84
9008.43,9771.36
9016.18,9765.6
9024.47,9760.64
9033.2,9756.51
9042.3,9753.25
9051.66,9750.91
9061.22,9749.49
9070.87,9749.02
9562.99,9749.02
Z" /> 
<path style="fill:#000000; fill-opacity:1.0; 
stroke:#000000; stroke-width:0; stroke-opacity:1; 
stroke-linecap:round; stroke-linejoin:round;fill-rule:evenodd;"
d="M 9572.64,8578.23
9582.19,8579.65
9591.56,8581.99
9600.66,8585.25
9609.39,8589.38
9617.67,8594.34
9625.43,8600.1
9632.59,8606.58
9639.08,8613.74
9644.83,8621.5
9649.8,8629.78
9653.93,8638.52
9657.18,8647.61
9659.53,8656.98
9660.94,8666.53
9661.42,8676.18
9661.42,9040.35
9660.94,9050
9659.53,9059.56
9657.18,9068.93
9653.93,9078.02
9649.8,9086.75
9644.83,9095.04
9639.08,9102.79
9632.59,9109.95
9625.43,9116.44
9617.67,9122.19
9609.39,9127.16
9600.66,9131.29
9591.56,9134.54
9582.19,9136.89
9572.64,9138.31
9562.99,9138.78
9070.87,9138.78
9061.22,9138.31
9051.66,9136.89
9042.3,9134.54
9033.2,9131.29
9024.47,9127.16
9016.18,9122.19
9008.43,9116.44
9001.27,9109.95
8994.78,9102.79
8989.03,9095.04
8984.06,9086.75
8979.93,9078.02
8976.68,9068.93
8974.33,9059.56
8972.92,9050
8972.44,9040.35
8972.44,8676.18
8972.92,8666.53
8974.33,8656.98
8976.68,8647.61
8979.93,8638.52
8984.06,8629.78
8989.03,8621.5
8994.78,8613.74
9001.27,8606.58
9008.43,8600.1
9016.18,8594.34
9024.47,8589.38
9033.2,8585.25
9042.3,8581.99
9051.66,8579.65
9061.22,8578.23
9070.87,8577.76
9562.99,8577.76
Z" /> 
</g>
<g >
</g>
<g style="fill:#000000; fill-opacity:1.0; 
stroke:#000000; stroke-width:0; stroke-opacity:1; 
stroke-linecap:round; stroke-linejoin:round;">
<path style="fill:#000000; fill-opacity:1.0; 
stroke:#000000; stroke-width:0; stroke-opacity:1; 
stroke-linecap:round; stroke-linejoin:round;fill-rule:evenodd;"
d="M 14322.6,17249.5
14332.2,17250.9
14341.6,17253.3
14350.7,17256.5
14359.4,17260.6
14367.7,17265.6
14375.4,17271.4
14382.6,17277.8
14389.1,17285
14394.8,17292.8
14399.8,17301
14403.9,17309.8
14407.2,17318.9
14409.5,17328.2
14410.9,17337.8
14411.4,17347.4
14411.4,17711.6
14410.9,17721.3
14409.5,17730.8
14407.2,17740.2
14403.9,17749.3
14399.8,17758
14394.8,17766.3
14389.1,17774.1
14382.6,17781.2
14375.4,17787.7
14367.7,17793.5
14359.4,17798.4
14350.7,17802.5
14341.6,17805.8
14332.2,17808.1
14322.6,17809.6
14313,17810
13820.9,17810
13811.2,17809.6
13801.7,17808.1
13792.3,17805.8
13783.2,17802.5
13774.5,17798.4
13766.2,17793.5
13758.4,17787.7
13751.3,17781.2
13744.8,17774.1
13739,17766.3
13734.1,17758
13729.9,17749.3
13726.7,17740.2
13724.3,17730.8
13722.9,17721.3
13722.4,17711.6
13722.4,17347.4
13722.9,17337.8
13724.3,17328.2
13726.7,17318.9
13729.9,17309.8
13734.1,17301
13739,17292.8
13744.8,17285
13751.3,17277.8
13758.4,17271.4
13766.2,17265.6
13774.5,17260.6
13783.2,17256.5
13792.3,17253.3
13801.7,17250.9
13811.2,17249.5
13820.9,17249
14313,17249
Z" /> 
<path style="fill:#000000; fill-opacity:1.0; 
stroke:#000000; stroke-width:0; stroke-opacity:1; 
stroke-linecap:round; stroke-linejoin:round;fill-rule:evenodd;"
d="M 14322.6,16078.2
14332.2,16079.6
14341.6,16082
14350.7,16085.2
14359.4,16089.4
14367.7,16094.3
14375.4,16100.1
14382.6,16106.6
14389.1,16113.7
14394.8,16121.5
14399.8,16129.8
14403.9,16138.5
14407.2,16147.6
14409.5,16157
14410.9,16166.5
14411.4,16176.2
14411.4,16540.4
14410.9,16550
14409.5,16559.6
14407.2,16568.9
14403.9,16578
14399.8,16586.8
14394.8,16595
14389.1,16602.8
14382.6,16610
14375.4,16616.4
14367.7,16622.2
14359.4,16627.2
14350.7,16631.3
14341.6,16634.5
14332.2,16636.9
14322.6,16638.3
14313,16638.8
13820.9,16638.8
13811.2,16638.3
13801.7,16636.9
13792.3,16634.5
13783.2,16631.3
13774.5,16627.2
13766.2,16622.2
13758.4,16616.4
13751.3,16610
13744.8,16602.8
13739,16595
13734.1,16586.8
13729.9,16578
13726.7,16568.9
13724.3,16559.6
13722.9,16550
13722.4,16540.4
13722.4,16176.2
13722.9,16166.5
13724.3,16157
13726.7,16147.6
13729.9,16138.5
13734.1,16129.8
13739,16121.5
13744.8,16113.7
13751.3,16106.6
13758.4,16100.1
13766.2,16094.3
13774.5,16089.4
13783.2,16085.2
13792.3,16082
13801.7,16079.6
13811.2,16078.2
13820.9,16077.8
14313,16077.8
Z" /> 
</g>
<g >
</g>
<g style="fill:#000000; fill-opacity:1.0; 
stroke:#000000; stroke-width:0; stroke-opacity:1; 
stroke-linecap:round; stroke-linejoin:round;">
<path style="fill:#000000; fill-opacity:1.0; 
stroke:#000000; stroke-width:0; stroke-opacity:1; 
stroke-linecap:round; stroke-linejoin:round;fill-rule:evenodd;"
d="M 13072.6,11578.2
13082.2,11579.6
13091.6,11582
13100.7,11585.2
13109.4,11589.4
13117.7,11594.3
13125.4,11600.1
13132.6,11606.6
13139.1,11613.7
13144.8,11621.5
13149.8,11629.8
13153.9,11638.5
13157.2,11647.6
13159.5,11657
13160.9,11666.5
13161.4,11676.2
13161.4,12040.4
13160.9,12050
13159.5,12059.6
13157.2,12068.9
13153.9,12078
13149.8,12086.8
13144.8,12095
13139.1,12102.8
13132.6,12110
13125.4,12116.4
13117.7,12122.2
13109.4,12127.2
13100.7,12131.3
13091.6,12134.5
13082.2,12136.9
13072.6,12138.3
13063,12138.8
12570.9,12138.8
12561.2,12138.3
12551.7,12136.9
12542.3,12134.5
12533.2,12131.3
12524.5,12127.2
12516.2,12122.2
12508.4,12116.4
12501.3,12110
12494.8,12102.8
12489,12095
12484.1,12086.8
12479.9,12078
12476.7,12068.9
12474.3,12059.6
12472.9,12050
12472.4,12040.4
12472.4,11676.2
12472.9,11666.5
12474.3,11657
12476.7,11647.6
12479.9,11638.5
12484.1,11629.8
12489,11621.5
12494.8,11613.7
12501.3,11606.6
12508.4,11600.1
12516.2,11594.3
12524.5,11589.4
12533.2,11585.2
12542.3,11582
12551.7,11579.6
12561.2,11578.2
12570.9,11577.8
13063,11577.8
Z" /> 
<path style="fill:#000000; fill-opacity:1.0; 
stroke:#000000; stroke-width:0; stroke-opacity:1; 
stroke-linecap:round; stroke-linejoin:round;fill-rule:evenodd;"
d="M 13072.6,12749.5
13082.2,12750.9
13091.6,12753.3
13100.7,12756.5
13109.4,12760.6
13117.7,12765.6
13125.4,12771.4
13132.6,12777.8
13139.1,12785
13144.8,12792.8
13149.8,12801
13153.9,12809.8
13157.2,12818.9
13159.5,12828.2
13160.9,12837.8
13161.4,12847.4
13161.4,13211.6
13160.9,13221.3
13159.5,13230.8
13157.2,13240.2
13153.9,13249.3
13149.8,13258
13144.8,13266.3
13139.1,13274.1
13132.6,13281.2
13125.4,13287.7
13117.7,13293.5
13109.4,13298.4
13100.7,13302.5
13091.6,13305.8
13082.2,13308.1
13072.6,13309.6
13063,13310
12570.9,13310
12561.2,13309.6
12551.7,13308.1
12542.3,13305.8
12533.2,13302.5
12524.5,13298.4
12516.2,13293.5
12508.4,13287.7
12501.3,13281.2
12494.8,13274.1
12489,13266.3
12484.1,13258
12479.9,13249.3
12476.7,13240.2
12474.3,13230.8
12472.9,13221.3
12472.4,13211.6
12472.4,12847.4
12472.9,12837.8
12474.3,12828.2
12476.7,12818.9
12479.9,12809.8
12484.1,12801
12489,12792.8
12494.8,12785
12501.3,12777.8
12508.4,12771.4
12516.2,12765.6
12524.5,12760.6
12533.2,12756.5
12542.3,12753.3
12551.7,12750.9
12561.2,12749.5
12570.9,12749
13063,12749
Z" /> 
</g>
<g >
</g>
<g style="fill:#000000; fill-opacity:1.0; 
stroke:#000000; stroke-width:0; stroke-opacity:1; 
stroke-linecap:round; stroke-linejoin:round;">
<path style="fill:#000000; fill-opacity:1.0; 
stroke:#000000; stroke-width:0; stroke-opacity:1; 
stroke-linecap:round; stroke-linejoin:round;fill-rule:evenodd;"
d="M 13572.6,9249.49
13582.2,9250.91
13591.6,9253.25
13600.7,9256.51
13609.4,9260.64
13617.7,9265.6
13625.4,9271.36
13632.6,9277.84
13639.1,9285
13644.8,9292.76
13649.8,9301.04
13653.9,9309.78
13657.2,9318.87
13659.5,9328.24
13660.9,9337.79
13661.4,9347.44
13661.4,9711.61
13660.9,9721.26
13659.5,9730.82
13657.2,9740.19
13653.9,9749.28
13649.8,9758.01
13644.8,9766.3
13639.1,9774.05
13632.6,9781.21
13625.4,9787.7
13617.7,9793.45
13609.4,9798.42
13600.7,9802.55
13591.6,9805.8
13582.2,9808.15
13572.6,9809.57
13563,9810.04
13070.9,9810.04
13061.2,9809.57
13051.7,9808.15
13042.3,9805.8
13033.2,9802.55
13024.5,9798.42
13016.2,9793.45
13008.4,9787.7
13001.3,9781.21
12994.8,9774.05
12989,9766.3
12984.1,9758.01
12979.9,9749.28
12976.7,9740.19
12974.3,9730.82
12972.9,9721.26
12972.4,9711.61
12972.4,9347.44
12972.9,9337.79
12974.3,9328.24
12976.7,9318.87
12979.9,9309.78
12984.1,9301.04
12989,9292.76
12994.8,9285
13001.3,9277.84
13008.4,9271.36
13016.2,9265.6
13024.5,9260.64
13033.2,9256.51
13042.3,9253.25
13051.7,9250.91
13061.2,9249.49
13070.9,9249.02
13563,9249.02
Z" /> 
<path style="fill:#000000; fill-opacity:1.0; 
stroke:#000000; stroke-width:0; stroke-opacity:1; 
stroke-linecap:round; stroke-linejoin:round;fill-rule:evenodd;"
d="M 13572.6,10420.8
13582.2,10422.2
13591.6,10424.5
13600.7,10427.8
13609.4,10431.9
13617.7,10436.9
13625.4,10442.6
13632.6,10449.1
13639.1,10456.3
13644.8,10464
13649.8,10472.3
13653.9,10481
13657.2,10490.1
13659.5,10499.5
13660.9,10509.1
13661.4,10518.7
13661.4,10882.9
13660.9,10892.5
13659.5,10902.1
13657.2,10911.4
13653.9,10920.5
13649.8,10929.3
13644.8,10937.6
13639.1,10945.3
13632.6,10952.5
13625.4,10959
13617.7,10964.7
13609.4,10969.7
13600.7,10973.8
13591.6,10977.1
13582.2,10979.4
13572.6,10980.8
13563,10981.3
13070.9,10981.3
13061.2,10980.8
13051.7,10979.4
13042.3,10977.1
13033.2,10973.8
13024.5,10969.7
13016.2,10964.7
13008.4,10959
13001.3,10952.5
12994.8,10945.3
12989,10937.6
12984.1,10929.3
12979.9,10920.5
12976.7,10911.4
12974.3,10902.1
12972.9,10892.5
12972.4,10882.9
12972.4,10518.7
12972.9,10509.1
12974.3,10499.5
12976.7,10490.1
12979.9,10481
12984.1,10472.3
12989,10464
12994.8,10456.3
13001.3,10449.1
13008.4,10442.6
13016.2,10436.9
13024.5,10431.9
13033.2,10427.8
13042.3,10424.5
13051.7,10422.2
13061.2,10420.8
13070.9,10420.3
13563,10420.3
Z" /> 
</g>
<g >
</g>
<g style="fill:#000000; fill-opacity:1.0; 
stroke:#000000; stroke-width:0; stroke-opacity:1; 
stroke-linecap:round; stroke-linejoin:round;">
<path style="fill:#000000; fill-opacity:1.0; 
stroke:#000000; stroke-width:0; stroke-opacity:1; 
stroke-linecap:round; stroke-linejoin:round;fill-rule:evenodd;"
d="M 14822.6,10420.8
14832.2,10422.2
14841.6,10424.5
14850.7,10427.8
14859.4,10431.9
14867.7,10436.9
14875.4,10442.6
14882.6,10449.1
14889.1,10456.3
14894.8,10464
14899.8,10472.3
14903.9,10481
14907.2,10490.1
14909.5,10499.5
14910.9,10509.1
14911.4,10518.7
14911.4,10882.9
14910.9,10892.5
14909.5,10902.1
14907.2,10911.4
14903.9,10920.5
14899.8,10929.3
14894.8,10937.6
14889.1,10945.3
14882.6,10952.5
14875.4,10959
14867.7,10964.7
14859.4,10969.7
14850.7,10973.8
14841.6,10977.1
14832.2,10979.4
14822.6,10980.8
14813,10981.3
14320.9,10981.3
14311.2,10980.8
14301.7,10979.4
14292.3,10977.1
14283.2,10973.8
14274.5,10969.7
14266.2,10964.7
14258.4,10959
14251.3,10952.5
14244.8,10945.3
14239,10937.6
14234.1,10929.3
14229.9,10920.5
14226.7,10911.4
14224.3,10902.1
14222.9,10892.5
14222.4,10882.9
14222.4,10518.7
14222.9,10509.1
14224.3,10499.5
14226.7,10490.1
14229.9,10481
14234.1,10472.3
14239,10464
14244.8,10456.3
14251.3,10449.1
14258.4,10442.6
14266.2,10436.9
14274.5,10431.9
14283.2,10427.8
14292.3,10424.5
14301.7,10422.2
14311.2,10420.8
14320.9,10420.3
14813,10420.3
Z" /> 
<path style="fill:#000000; fill-opacity:1.0; 
stroke:#000000; stroke-width:0; stroke-opacity:1; 
stroke-linecap:round; stroke-linejoin:round;fill-rule:evenodd;"
d="M 14822.6,9249.49
14832.2,9250.91
14841.6,9253.25
14850.7,9256.51
14859.4,9260.64
14867.7,9265.6
14875.4,9271.36
14882.6,9277.84
14889.1,9285
14894.8,9292.76
14899.8,9301.04
14903.9,9309.78
14907.2,9318.87
14909.5,9328.24
14910.9,9337.79
14911.4,9347.44
14911.4,9711.61
14910.9,9721.26
14909.5,9730.82
14907.2,9740.19
14903.9,9749.28
14899.8,9758.01
14894.8,9766.3
14889.1,9774.05
14882.6,9781.21
14875.4,9787.7
14867.7,9793.45
14859.4,9798.42
14850.7,9802.55
14841.6,9805.8
14832.2,9808.15
14822.6,9809.57
14813,9810.04
14320.9,9810.04
14311.2,9809.57
14301.7,9808.15
14292.3,9805.8
14283.2,9802.55
14274.5,9798.42
14266.2,9793.45
14258.4,9787.7
14251.3,9781.21
14244.8,9774.05
14239,9766.3
14234.1,9758.01
14229.9,9749.28
14226.7,9740.19
14224.3,9730.82
14222.9,9721.26
14222.4,9711.61
14222.4,9347.44
14222.9,9337.79
14224.3,9328.24
14226.7,9318.87
14229.9,9309.78
14234.1,9301.04
14239,9292.76
14244.8,9285
14251.3,9277.84
14258.4,9271.36
14266.2,9265.6
14274.5,9260.64
14283.2,9256.51
14292.3,9253.25
14301.7,9250.91
14311.2,9249.49
14320.9,9249.02
14813,9249.02
Z" /> 
</g>
<g >
</g>
<g style="fill:#000000; fill-opacity:1.0; 
stroke:#000000; stroke-width:0; stroke-opacity:1; 
stroke-linecap:round; stroke-linejoin:round;">
<path style="fill:#000000; fill-opacity:1.0; 
stroke:#000000; stroke-width:0; stroke-opacity:1; 
stroke-linecap:round; stroke-linejoin:round;fill-rule:evenodd;"
d="M 19672.6,13920.8
19682.2,13922.2
19691.6,13924.5
19700.7,13927.8
19709.4,13931.9
19717.7,13936.9
19725.4,13942.6
19732.6,13949.1
19739.1,13956.3
19744.8,13964
19749.8,13972.3
19753.9,13981
19757.2,13990.1
19759.5,13999.5
19760.9,14009.1
19761.4,14018.7
19761.4,14382.9
19760.9,14392.5
19759.5,14402.1
19757.2,14411.4
19753.9,14420.5
19749.8,14429.3
19744.8,14437.6
19739.1,14445.3
19732.6,14452.5
19725.4,14459
19717.7,14464.7
19709.4,14469.7
19700.7,14473.8
19691.6,14477.1
19682.2,14479.4
19672.6,14480.8
19663,14481.3
19170.9,14481.3
19161.2,14480.8
19151.7,14479.4
19142.3,14477.1
19133.2,14473.8
19124.5,14469.7
19116.2,14464.7
19108.4,14459
19101.3,14452.5
19094.8,14445.3
19089,14437.6
19084.1,14429.3
19079.9,14420.5
19076.7,14411.4
19074.3,14402.1
19072.9,14392.5
19072.4,14382.9
19072.4,14018.7
19072.9,14009.1
19074.3,13999.5
19076.7,13990.1
19079.9,13981
19084.1,13972.3
19089,13964
19094.8,13956.3
19101.3,13949.1
19108.4,13942.6
19116.2,13936.9
19124.5,13931.9
19133.2,13927.8
19142.3,13924.5
19151.7,13922.2
19161.2,13920.8
19170.9,13920.3
19663,13920.3
Z" /> 
<path style="fill:#000000; fill-opacity:1.0; 
stroke:#000000; stroke-width:0; stroke-opacity:1; 
stroke-linecap:round; stroke-linejoin:round;fill-rule:evenodd;"
d="M 19672.6,12749.5
19682.2,12750.9
19691.6,12753.3
19700.7,12756.5
19709.4,12760.6
19717.7,12765.6
19725.4,12771.4
19732.6,12777.8
19739.1,12785
19744.8,12792.8
19749.8,12801
19753.9,12809.8
19757.2,12818.9
19759.5,12828.2
19760.9,12837.8
19761.4,12847.4
19761.4,13211.6
19760.9,13221.3
19759.5,13230.8
19757.2,13240.2
19753.9,13249.3
19749.8,13258
19744.8,13266.3
19739.1,13274.1
19732.6,13281.2
19725.4,13287.7
19717.7,13293.5
19709.4,13298.4
19700.7,13302.5
19691.6,13305.8
19682.2,13308.1
19672.6,13309.6
19663,13310
19170.9,13310
19161.2,13309.6
19151.7,13308.1
19142.3,13305.8
19133.2,13302.5
19124.5,13298.4
19116.2,13293.5
19108.4,13287.7
19101.3,13281.2
19094.8,13274.1
19089,13266.3
19084.1,13258
19079.9,13249.3
19076.7,13240.2
19074.3,13230.8
19072.9,13221.3
19072.4,13211.6
19072.4,12847.4
19072.9,12837.8
19074.3,12828.2
19076.7,12818.9
19079.9,12809.8
19084.1,12801
19089,12792.8
19094.8,12785
19101.3,12777.8
19108.4,12771.4
19116.2,12765.6
19124.5,12760.6
19133.2,12756.5
19142.3,12753.3
19151.7,12750.9
19161.2,12749.5
19170.9,12749
19663,12749
Z" /> 
</g>
<g >
</g>
<g style="fill:#000000; fill-opacity:1.0; 
stroke:#000000; stroke-width:0; stroke-opacity:1; 
stroke-linecap:round; stroke-linejoin:round;">
<path style="fill:#000000; fill-opacity:1.0; 
stroke:#000000; stroke-width:0; stroke-opacity:1; 
stroke-linecap:round; stroke-linejoin:round;fill-rule:evenodd;"
d="M 7258.66,7185.51
7268.22,7186.93
7277.59,7189.28
7286.68,7192.53
7295.41,7196.66
7303.7,7201.63
7311.46,7207.38
7318.61,7213.87
7325.1,7221.02
7330.85,7228.78
7335.82,7237.07
7339.95,7245.8
7343.2,7254.89
7345.55,7264.26
7346.97,7273.82
7347.44,7283.46
7347.44,7775.59
7346.97,7785.24
7345.55,7794.79
7343.2,7804.16
7339.95,7813.26
7335.82,7821.99
7330.85,7830.27
7325.1,7838.03
7318.61,7845.19
7311.46,7851.67
7303.7,7857.43
7295.41,7862.39
7286.68,7866.52
7277.59,7869.78
7268.22,7872.12
7258.66,7873.54
7249.02,7874.02
6884.84,7874.02
6875.2,7873.54
6865.64,7872.12
6856.27,7869.78
6847.18,7866.52
6838.45,7862.39
6830.16,7857.43
6822.4,7851.67
6815.25,7845.19
6808.76,7838.03
6803.01,7830.27
6798.04,7821.99
6793.91,7813.26
6790.66,7804.16
6788.31,7794.79
6786.89,7785.24
6786.42,7775.59
6786.42,7283.46
6786.89,7273.82
6788.31,7264.26
6790.66,7254.89
6793.91,7245.8
6798.04,7237.07
6803.01,7228.78
6808.76,7221.02
6815.25,7213.87
6822.4,7207.38
6830.16,7201.63
6838.45,7196.66
6847.18,7192.53
6856.27,7189.28
6865.64,7186.93
6875.2,7185.51
6884.84,7185.04
7249.02,7185.04
Z" /> 
<path style="fill:#000000; fill-opacity:1.0; 
stroke:#000000; stroke-width:0; stroke-opacity:1; 
stroke-linecap:round; stroke-linejoin:round;fill-rule:evenodd;"
d="M 8429.92,7185.51
8439.48,7186.93
8448.85,7189.28
8457.94,7192.53
8466.67,7196.66
8474.96,7201.63
8482.72,7207.38
8489.87,7213.87
8496.36,7221.02
8502.11,7228.78
8507.08,7237.07
8511.21,7245.8
8514.46,7254.89
8516.81,7264.26
8518.23,7273.82
8518.7,7283.46
8518.7,7775.59
8518.23,7785.24
8516.81,7794.79
8514.46,7804.16
8511.21,7813.26
8507.08,7821.99
8502.11,7830.27
8496.36,7838.03
8489.87,7845.19
8482.72,7851.67
8474.96,7857.43
8466.67,7862.39
8457.94,7866.52
8448.85,7869.78
8439.48,7872.12
8429.92,7873.54
8420.28,7874.02
8056.1,7874.02
8046.46,7873.54
8036.9,7872.12
8027.53,7869.78
8018.44,7866.52
8009.71,7862.39
8001.42,7857.43
7993.66,7851.67
7986.51,7845.19
7980.02,7838.03
7974.27,7830.27
7969.3,7821.99
7965.17,7813.26
7961.92,7804.16
7959.57,7794.79
7958.15,7785.24
7957.68,7775.59
7957.68,7283.46
7958.15,7273.82
7959.57,7264.26
7961.92,7254.89
7965.17,7245.8
7969.3,7237.07
7974.27,7228.78
7980.02,7221.02
7986.51,7213.87
7993.66,7207.38
8001.42,7201.63
8009.71,7196.66
8018.44,7192.53
8027.53,7189.28
8036.9,7186.93
8046.46,7185.51
8056.1,7185.04
8420.28,7185.04
Z" /> 
</g>
<g >
</g>
<g style="fill:#000000; fill-opacity:1.0; 
stroke:#000000; stroke-width:0; stroke-opacity:1; 
stroke-linecap:round; stroke-linejoin:round;">
<path style="fill:#000000; fill-opacity:1.0; 
stroke:#000000; stroke-width:0; stroke-opacity:1; 
stroke-linecap:round; stroke-linejoin:round;fill-rule:evenodd;"
d="M 19572.6,10335.1
19582.2,10336.5
19591.6,10338.9
19600.7,10342.1
19609.4,10346.3
19617.7,10351.2
19625.4,10357
19632.6,10363.5
19639.1,10370.6
19644.8,10378.4
19649.8,10386.7
19653.9,10395.4
19657.2,10404.5
19659.5,10413.9
19660.9,10423.4
19661.4,10433.1
19661.4,10797.2
19660.9,10806.9
19659.5,10816.4
19657.2,10825.8
19653.9,10834.9
19649.8,10843.6
19644.8,10851.9
19639.1,10859.7
19632.6,10866.8
19625.4,10873.3
19617.7,10879.1
19609.4,10884
19600.7,10888.2
19591.6,10891.4
19582.2,10893.8
19572.6,10895.2
19563,10895.7
19070.9,10895.7
19061.2,10895.2
19051.7,10893.8
19042.3,10891.4
19033.2,10888.2
19024.5,10884
19016.2,10879.1
19008.4,10873.3
19001.3,10866.8
18994.8,10859.7
18989,10851.9
18984.1,10843.6
18979.9,10834.9
18976.7,10825.8
18974.3,10816.4
18972.9,10806.9
18972.4,10797.2
18972.4,10433.1
18972.9,10423.4
18974.3,10413.9
18976.7,10404.5
18979.9,10395.4
18984.1,10386.7
18989,10378.4
18994.8,10370.6
19001.3,10363.5
19008.4,10357
19016.2,10351.2
19024.5,10346.3
19033.2,10342.1
19042.3,10338.9
19051.7,10336.5
19061.2,10335.1
19070.9,10334.6
19563,10334.6
Z" /> 
<path style="fill:#000000; fill-opacity:1.0; 
stroke:#000000; stroke-width:0; stroke-opacity:1; 
stroke-linecap:round; stroke-linejoin:round;fill-rule:evenodd;"
d="M 19572.6,9163.86
19582.2,9165.28
19591.6,9167.62
19600.7,9170.88
19609.4,9175.01
19617.7,9179.97
19625.4,9185.73
19632.6,9192.21
19639.1,9199.37
19644.8,9207.13
19649.8,9215.41
19653.9,9224.15
19657.2,9233.24
19659.5,9242.61
19660.9,9252.16
19661.4,9261.81
19661.4,9625.98
19660.9,9635.63
19659.5,9645.19
19657.2,9654.56
19653.9,9663.65
19649.8,9672.38
19644.8,9680.67
19639.1,9688.42
19632.6,9695.58
19625.4,9702.07
19617.7,9707.82
19609.4,9712.79
19600.7,9716.92
19591.6,9720.17
19582.2,9722.52
19572.6,9723.94
19563,9724.41
19070.9,9724.41
19061.2,9723.94
19051.7,9722.52
19042.3,9720.17
19033.2,9716.92
19024.5,9712.79
19016.2,9707.82
19008.4,9702.07
19001.3,9695.58
18994.8,9688.42
18989,9680.67
18984.1,9672.38
18979.9,9663.65
18976.7,9654.56
18974.3,9645.19
18972.9,9635.63
18972.4,9625.98
18972.4,9261.81
18972.9,9252.16
18974.3,9242.61
18976.7,9233.24
18979.9,9224.15
18984.1,9215.41
18989,9207.13
18994.8,9199.37
19001.3,9192.21
19008.4,9185.73
19016.2,9179.97
19024.5,9175.01
19033.2,9170.88
19042.3,9167.62
19051.7,9165.28
19061.2,9163.86
19070.9,9163.39
19563,9163.39
Z" /> 
</g>
<g >
</g>
<g style="fill:#000000; fill-opacity:1.0; 
stroke:#000000; stroke-width:0; stroke-opacity:1; 
stroke-linecap:round; stroke-linejoin:round;">
<path style="fill:#000000; fill-opacity:1.0; 
stroke:#000000; stroke-width:0; stroke-opacity:1; 
stroke-linecap:round; stroke-linejoin:round;fill-rule:evenodd;"
d="M 9337.4,5685.51
9346.96,5686.93
9356.33,5689.28
9365.42,5692.53
9374.15,5696.66
9382.44,5701.63
9390.2,5707.38
9397.35,5713.87
9403.84,5721.02
9409.59,5728.78
9414.56,5737.07
9418.69,5745.8
9421.94,5754.89
9424.29,5764.26
9425.71,5773.82
9426.18,5783.46
9426.18,6275.59
9425.71,6285.24
9424.29,6294.79
9421.94,6304.16
9418.69,6313.26
9414.56,6321.99
9409.59,6330.27
9403.84,6338.03
9397.35,6345.19
9390.2,6351.67
9382.44,6357.43
9374.15,6362.39
9365.42,6366.52
9356.33,6369.78
9346.96,6372.12
9337.4,6373.54
9327.76,6374.02
8963.58,6374.02
8953.94,6373.54
8944.38,6372.12
8935.01,6369.78
8925.92,6366.52
8917.19,6362.39
8908.9,6357.43
8901.14,6351.67
8893.99,6345.19
8887.5,6338.03
8881.75,6330.27
8876.78,6321.99
8872.65,6313.26
8869.4,6304.16
8867.05,6294.79
8865.63,6285.24
8865.16,6275.59
8865.16,5783.46
8865.63,5773.82
8867.05,5764.26
8869.4,5754.89
8872.65,5745.8
8876.78,5737.07
8881.75,5728.78
8887.5,5721.02
8893.99,5713.87
8901.14,5707.38
8908.9,5701.63
8917.19,5696.66
8925.92,5692.53
8935.01,5689.28
8944.38,5686.93
8953.94,5685.51
8963.58,5685.04
9327.76,5685.04
Z" /> 
<path style="fill:#000000; fill-opacity:1.0; 
stroke:#000000; stroke-width:0; stroke-opacity:1; 
stroke-linecap:round; stroke-linejoin:round;fill-rule:evenodd;"
d="M 10508.7,5685.51
10518.2,5686.93
10527.6,5689.28
10536.7,5692.53
10545.4,5696.66
10553.7,5701.63
10561.5,5707.38
10568.6,5713.87
10575.1,5721.02
10580.9,5728.78
10585.8,5737.07
10589.9,5745.8
10593.2,5754.89
10595.5,5764.26
10597,5773.82
10597.4,5783.46
10597.4,6275.59
10597,6285.24
10595.5,6294.79
10593.2,6304.16
10589.9,6313.26
10585.8,6321.99
10580.9,6330.27
10575.1,6338.03
10568.6,6345.19
10561.5,6351.67
10553.7,6357.43
10545.4,6362.39
10536.7,6366.52
10527.6,6369.78
10518.2,6372.12
10508.7,6373.54
10499,6374.02
10134.8,6374.02
10125.2,6373.54
10115.6,6372.12
10106.3,6369.78
10097.2,6366.52
10088.4,6362.39
10080.2,6357.43
10072.4,6351.67
10065.2,6345.19
10058.8,6338.03
10053,6330.27
10048,6321.99
10043.9,6313.26
10040.7,6304.16
10038.3,6294.79
10036.9,6285.24
10036.4,6275.59
10036.4,5783.46
10036.9,5773.82
10038.3,5764.26
10040.7,5754.89
10043.9,5745.8
10048,5737.07
10053,5728.78
10058.8,5721.02
10065.2,5713.87
10072.4,5707.38
10080.2,5701.63
10088.4,5696.66
10097.2,5692.53
10106.3,5689.28
10115.6,5686.93
10125.2,5685.51
10134.8,5685.04
10499,5685.04
Z" /> 
</g>
<g >
</g>
<g style="fill:#000000; fill-opacity:1.0; 
stroke:#000000; stroke-width:0; stroke-opacity:1; 
stroke-linecap:round; stroke-linejoin:round;">
<path style="fill:#000000; fill-opacity:1.0; 
stroke:#000000; stroke-width:0; stroke-opacity:1; 
stroke-linecap:round; stroke-linejoin:round;fill-rule:evenodd;"
d="M 14322.6,5920.75
14332.2,5922.17
14341.6,5924.51
14350.7,5927.77
14359.4,5931.9
14367.7,5936.86
14375.4,5942.62
14382.6,5949.1
14389.1,5956.26
14394.8,5964.02
14399.8,5972.3
14403.9,5981.04
14407.2,5990.13
14409.5,5999.5
14410.9,6009.05
14411.4,6018.7
14411.4,6382.87
14410.9,6392.52
14409.5,6402.08
14407.2,6411.45
14403.9,6420.54
14399.8,6429.27
14394.8,6437.56
14389.1,6445.31
14382.6,6452.47
14375.4,6458.96
14367.7,6464.71
14359.4,6469.68
14350.7,6473.81
14341.6,6477.06
14332.2,6479.41
14322.6,6480.83
14313,6481.3
13820.9,6481.3
13811.2,6480.83
13801.7,6479.41
13792.3,6477.06
13783.2,6473.81
13774.5,6469.68
13766.2,6464.71
13758.4,6458.96
13751.3,6452.47
13744.8,6445.31
13739,6437.56
13734.1,6429.27
13729.9,6420.54
13726.7,6411.45
13724.3,6402.08
13722.9,6392.52
13722.4,6382.87
13722.4,6018.7
13722.9,6009.05
13724.3,5999.5
13726.7,5990.13
13729.9,5981.04
13734.1,5972.3
13739,5964.02
13744.8,5956.26
13751.3,5949.1
13758.4,5942.62
13766.2,5936.86
13774.5,5931.9
13783.2,5927.77
13792.3,5924.51
13801.7,5922.17
13811.2,5920.75
13820.9,5920.28
14313,5920.28
Z" /> 
<path style="fill:#000000; fill-opacity:1.0; 
stroke:#000000; stroke-width:0; stroke-opacity:1; 
stroke-linecap:round; stroke-linejoin:round;fill-rule:evenodd;"
d="M 14322.6,4749.49
14332.2,4750.91
14341.6,4753.25
14350.7,4756.51
14359.4,4760.64
14367.7,4765.6
14375.4,4771.36
14382.6,4777.84
14389.1,4785
14394.8,4792.76
14399.8,4801.04
14403.9,4809.78
14407.2,4818.87
14409.5,4828.24
14410.9,4837.79
14411.4,4847.44
14411.4,5211.61
14410.9,5221.26
14409.5,5230.82
14407.2,5240.19
14403.9,5249.28
14399.8,5258.01
14394.8,5266.3
14389.1,5274.05
14382.6,5281.21
14375.4,5287.7
14367.7,5293.45
14359.4,5298.42
14350.7,5302.55
14341.6,5305.8
14332.2,5308.15
14322.6,5309.57
14313,5310.04
13820.9,5310.04
13811.2,5309.57
13801.7,5308.15
13792.3,5305.8
13783.2,5302.55
13774.5,5298.42
13766.2,5293.45
13758.4,5287.7
13751.3,5281.21
13744.8,5274.05
13739,5266.3
13734.1,5258.01
13729.9,5249.28
13726.7,5240.19
13724.3,5230.82
13722.9,5221.26
13722.4,5211.61
13722.4,4847.44
13722.9,4837.79
13724.3,4828.24
13726.7,4818.87
13729.9,4809.78
13734.1,4801.04
13739,4792.76
13744.8,4785
13751.3,4777.84
13758.4,4771.36
13766.2,4765.6
13774.5,4760.64
13783.2,4756.51
13792.3,4753.25
13801.7,4750.91
13811.2,4749.49
13820.9,4749.02
14313,4749.02
Z" /> 
</g>
<g >
</g>
<g style="fill:#000000; fill-opacity:1.0; 
stroke:#000000; stroke-width:0; stroke-opacity:1; 
stroke-linecap:round; stroke-linejoin:round;">
<path style="fill:#000000; fill-opacity:1.0; 
stroke:#000000; stroke-width:0; stroke-opacity:1; 
stroke-linecap:round; stroke-linejoin:round;fill-rule:evenodd;"
d="M 15572.6,4828.23
15582.2,4829.65
15591.6,4831.99
15600.7,4835.25
15609.4,4839.38
15617.7,4844.34
15625.4,4850.1
15632.6,4856.58
15639.1,4863.74
15644.8,4871.5
15649.8,4879.78
15653.9,4888.52
15657.2,4897.61
15659.5,4906.98
15660.9,4916.53
15661.4,4926.18
15661.4,5290.35
15660.9,5300
15659.5,5309.56
15657.2,5318.93
15653.9,5328.02
15649.8,5336.75
15644.8,5345.04
15639.1,5352.79
15632.6,5359.95
15625.4,5366.44
15617.7,5372.19
15609.4,5377.16
15600.7,5381.29
15591.6,5384.54
15582.2,5386.89
15572.6,5388.31
15563,5388.78
15070.9,5388.78
15061.2,5388.31
15051.7,5386.89
15042.3,5384.54
15033.2,5381.29
15024.5,5377.16
15016.2,5372.19
15008.4,5366.44
15001.3,5359.95
14994.8,5352.79
14989,5345.04
14984.1,5336.75
14979.9,5328.02
14976.7,5318.93
14974.3,5309.56
14972.9,5300
14972.4,5290.35
14972.4,4926.18
14972.9,4916.53
14974.3,4906.98
14976.7,4897.61
14979.9,4888.52
14984.1,4879.78
14989,4871.5
14994.8,4863.74
15001.3,4856.58
15008.4,4850.1
15016.2,4844.34
15024.5,4839.38
15033.2,4835.25
15042.3,4831.99
15051.7,4829.65
15061.2,4828.23
15070.9,4827.76
15563,4827.76
Z" /> 
<path style="fill:#000000; fill-opacity:1.0; 
stroke:#000000; stroke-width:0; stroke-opacity:1; 
stroke-linecap:round; stroke-linejoin:round;fill-rule:evenodd;"
d="M 15572.6,5999.49
15582.2,6000.91
15591.6,6003.25
15600.7,6006.51
15609.4,6010.64
15617.7,6015.6
15625.4,6021.36
15632.6,6027.84
15639.1,6035
15644.8,6042.76
15649.8,6051.04
15653.9,6059.78
15657.2,6068.87
15659.5,6078.24
15660.9,6087.79
15661.4,6097.44
15661.4,6461.61
15660.9,6471.26
15659.5,6480.82
15657.2,6490.19
15653.9,6499.28
15649.8,6508.01
15644.8,6516.3
15639.1,6524.05
15632.6,6531.21
15625.4,6537.7
15617.7,6543.45
15609.4,6548.42
15600.7,6552.55
15591.6,6555.8
15582.2,6558.15
15572.6,6559.57
15563,6560.04
15070.9,6560.04
15061.2,6559.57
15051.7,6558.15
15042.3,6555.8
15033.2,6552.55
15024.5,6548.42
15016.2,6543.45
15008.4,6537.7
15001.3,6531.21
14994.8,6524.05
14989,6516.3
14984.1,6508.01
14979.9,6499.28
14976.7,6490.19
14974.3,6480.82
14972.9,6471.26
14972.4,6461.61
14972.4,6097.44
14972.9,6087.79
14974.3,6078.24
14976.7,6068.87
14979.9,6059.78
14984.1,6051.04
14989,6042.76
14994.8,6035
15001.3,6027.84
15008.4,6021.36
15016.2,6015.6
15024.5,6010.64
15033.2,6006.51
15042.3,6003.25
15051.7,6000.91
15061.2,5999.49
15070.9,5999.02
15563,5999.02
Z" /> 
</g>
<g >
</g>
<g style="fill:#000000; fill-opacity:1.0; 
stroke:#000000; stroke-width:0; stroke-opacity:1; 
stroke-linecap:round; stroke-linejoin:round;">
<path style="fill:#000000; fill-opacity:1.0; 
stroke:#000000; stroke-width:0; stroke-opacity:1; 
stroke-linecap:round; stroke-linejoin:round;fill-rule:evenodd;"
d="M 8094.29,11185.5
8103.85,11186.9
8113.22,11189.3
8122.31,11192.5
8131.04,11196.7
8139.33,11201.6
8147.09,11207.4
8154.24,11213.9
8160.73,11221
8166.48,11228.8
8171.45,11237.1
8175.58,11245.8
8178.83,11254.9
8181.18,11264.3
8182.6,11273.8
8183.07,11283.5
8183.07,11775.6
8182.6,11785.2
8181.18,11794.8
8178.83,11804.2
8175.58,11813.3
8171.45,11822
8166.48,11830.3
8160.73,11838
8154.24,11845.2
8147.09,11851.7
8139.33,11857.4
8131.04,11862.4
8122.31,11866.5
8113.22,11869.8
8103.85,11872.1
8094.29,11873.5
8084.65,11874
7720.47,11874
7710.83,11873.5
7701.27,11872.1
7691.9,11869.8
7682.81,11866.5
7674.08,11862.4
7665.79,11857.4
7658.03,11851.7
7650.88,11845.2
7644.39,11838
7638.64,11830.3
7633.67,11822
7629.54,11813.3
7626.29,11804.2
7623.94,11794.8
7622.52,11785.2
7622.05,11775.6
7622.05,11283.5
7622.52,11273.8
7623.94,11264.3
7626.29,11254.9
7629.54,11245.8
7633.67,11237.1
7638.64,11228.8
7644.39,11221
7650.88,11213.9
7658.03,11207.4
7665.79,11201.6
7674.08,11196.7
7682.81,11192.5
7691.9,11189.3
7701.27,11186.9
7710.83,11185.5
7720.47,11185
8084.65,11185
Z" /> 
<path style="fill:#000000; fill-opacity:1.0; 
stroke:#000000; stroke-width:0; stroke-opacity:1; 
stroke-linecap:round; stroke-linejoin:round;fill-rule:evenodd;"
d="M 6923.03,11185.5
6932.59,11186.9
6941.96,11189.3
6951.05,11192.5
6959.78,11196.7
6968.07,11201.6
6975.83,11207.4
6982.98,11213.9
6989.47,11221
6995.22,11228.8
7000.19,11237.1
7004.32,11245.8
7007.57,11254.9
7009.92,11264.3
7011.34,11273.8
7011.81,11283.5
7011.81,11775.6
7011.34,11785.2
7009.92,11794.8
7007.57,11804.2
7004.32,11813.3
7000.19,11822
6995.22,11830.3
6989.47,11838
6982.98,11845.2
6975.83,11851.7
6968.07,11857.4
6959.78,11862.4
6951.05,11866.5
6941.96,11869.8
6932.59,11872.1
6923.03,11873.5
6913.39,11874
6549.21,11874
6539.57,11873.5
6530.01,11872.1
6520.64,11869.8
6511.55,11866.5
6502.82,11862.4
6494.53,11857.4
6486.77,11851.7
6479.62,11845.2
6473.13,11838
6467.38,11830.3
6462.41,11822
6458.28,11813.3
6455.03,11804.2
6452.68,11794.8
6451.26,11785.2
6450.79,11775.6
6450.79,11283.5
6451.26,11273.8
6452.68,11264.3
6455.03,11254.9
6458.28,11245.8
6462.41,11237.1
6467.38,11228.8
6473.13,11221
6479.62,11213.9
6486.77,11207.4
6494.53,11201.6
6502.82,11196.7
6511.55,11192.5
6520.64,11189.3
6530.01,11186.9
6539.57,11185.5
6549.21,11185
6913.39,11185
Z" /> 
</g>
<g >
</g>
<g style="fill:#000000; fill-opacity:1.0; 
stroke:#000000; stroke-width:0; stroke-opacity:1; 
stroke-linecap:round; stroke-linejoin:round;">
<path style="fill:#000000; fill-opacity:1.0; 
stroke:#000000; stroke-width:0; stroke-opacity:1; 
stroke-linecap:round; stroke-linejoin:round;fill-rule:evenodd;"
d="M 5850.19,6228.22
4747.83,6228.22
4747.83,5283.34
5850.19,5283.34
Z" /> 
<path style="fill:#000000; fill-opacity:1.0; 
stroke:#000000; stroke-width:0; stroke-opacity:1; 
stroke-linecap:round; stroke-linejoin:round;fill-rule:evenodd;"
d="M 3448.61,6228.22
2346.25,6228.22
2346.25,5283.34
3448.61,5283.34
Z" /> 
<path style="fill:#000000; fill-opacity:1.0; 
stroke:#000000; stroke-width:0; stroke-opacity:1; 
stroke-linecap:round; stroke-linejoin:round;fill-rule:evenodd;"
d="M 3448.61,10716.4
2346.25,10716.4
2346.25,9771.53
3448.61,9771.53
Z" /> 
<path style="fill:#000000; fill-opacity:1.0; 
stroke:#000000; stroke-width:0; stroke-opacity:1; 
stroke-linecap:round; stroke-linejoin:round;fill-rule:evenodd;"
d="M 5850.19,10716.4
4747.83,10716.4
4747.83,9771.53
5850.19,9771.53
Z" /> 
<circle cx="4669.09" cy="7999.87" r="531.496" /> 
</g>
<g style="fill:#000000; fill-opacity:1.0; 
stroke:#000000; stroke-width:39.3701; stroke-opacity:1; 
stroke-linecap:round; stroke-linejoin:round;">
</g>
<g style="fill:#000000; fill-opacity:1.0; 
stroke:#000000; stroke-width:0; stroke-opacity:1; 
stroke-linecap:round; stroke-linejoin:round;">
<circle cx="2897.43" cy="7999.87" r="472.441" /> 
</g>
<g style="fill:#000000; fill-opacity:1.0; 
stroke:#000000; stroke-width:39.3701; stroke-opacity:1; 
stroke-linecap:round; stroke-linejoin:round;">
</g>
<g >
</g>
<g style="fill:#000000; fill-opacity:1.0; 
stroke:#000000; stroke-width:39.3701; stroke-opacity:1; 
stroke-linecap:round; stroke-linejoin:round;">
</g>
<g style="fill:#000000; fill-opacity:1.0; 
stroke:#000000; stroke-width:0; stroke-opacity:1; 
stroke-linecap:round; stroke-linejoin:round;">
<path style="fill:#000000; fill-opacity:1.0; 
stroke:#000000; stroke-width:0; stroke-opacity:1; 
stroke-linecap:round; stroke-linejoin:round;fill-rule:evenodd;"
d="M 21715.9,6529.53
21715.9,7029.53
20715.9,7029.53
20715.9,6529.53
Z" /> 
<path style="fill:#000000; fill-opacity:1.0; 
stroke:#000000; stroke-width:0; stroke-opacity:1; 
stroke-linecap:round; stroke-linejoin:round;fill-rule:evenodd;"
d="M 19566.9,6529.53
19566.9,7029.53
18566.9,7029.53
18566.9,6529.53
Z" /> 
<path style="fill:#000000; fill-opacity:1.0; 
stroke:#000000; stroke-width:0; stroke-opacity:1; 
stroke-linecap:round; stroke-linejoin:round;fill-rule:evenodd;"
d="M 21715.9,5529.53
21715.9,6029.53
20715.9,6029.53
20715.9,5529.53
Z" /> 
<path style="fill:#000000; fill-opacity:1.0; 
stroke:#000000; stroke-width:0; stroke-opacity:1; 
stroke-linecap:round; stroke-linejoin:round;fill-rule:evenodd;"
d="M 19566.9,5529.53
19566.9,6029.53
18566.9,6029.53
18566.9,5529.53
Z" /> 
</g>
<g >
</g>
<g style="fill:#000000; fill-opacity:1.0; 
stroke:#000000; stroke-width:0; stroke-opacity:1; 
stroke-linecap:round; stroke-linejoin:round;">
<path style="fill:#000000; fill-opacity:1.0; 
stroke:#000000; stroke-width:0; stroke-opacity:1; 
stroke-linecap:round; stroke-linejoin:round;fill-rule:evenodd;"
d="M 9423.23,4194.88
9423.23,4864.17
8950.79,4864.17
8950.79,4194.88
Z" /> 
<path style="fill:#000000; fill-opacity:1.0; 
stroke:#000000; stroke-width:0; stroke-opacity:1; 
stroke-linecap:round; stroke-linejoin:round;fill-rule:evenodd;"
d="M 10683.1,4194.88
10683.1,4864.17
10210.6,4864.17
10210.6,4194.88
Z" /> 
</g>
<g >
</g>
<g style="fill:#000000; fill-opacity:1.0; 
stroke:#000000; stroke-width:0; stroke-opacity:1; 
stroke-linecap:round; stroke-linejoin:round;">
<path style="fill:#000000; fill-opacity:1.0; 
stroke:#000000; stroke-width:0; stroke-opacity:1; 
stroke-linecap:round; stroke-linejoin:round;fill-rule:evenodd;"
d="M 14401.6,7385.83
13732.3,7385.83
13732.3,6913.39
14401.6,6913.39
Z" /> 
<path style="fill:#000000; fill-opacity:1.0; 
stroke:#000000; stroke-width:0; stroke-opacity:1; 
stroke-linecap:round; stroke-linejoin:round;fill-rule:evenodd;"
d="M 14401.6,8645.67
13732.3,8645.67
13732.3,8173.23
14401.6,8173.23
Z" /> 
</g>
<g >
</g>
<g style="fill:#000000; fill-opacity:1.0; 
stroke:#000000; stroke-width:0; stroke-opacity:1; 
stroke-linecap:round; stroke-linejoin:round;">
<path style="fill:#000000; fill-opacity:1.0; 
stroke:#000000; stroke-width:0; stroke-opacity:1; 
stroke-linecap:round; stroke-linejoin:round;fill-rule:evenodd;"
d="M 15651.6,8775.59
14982.3,8775.59
14982.3,8303.15
15651.6,8303.15
Z" /> 
<path style="fill:#000000; fill-opacity:1.0; 
stroke:#000000; stroke-width:0; stroke-opacity:1; 
stroke-linecap:round; stroke-linejoin:round;fill-rule:evenodd;"
d="M 15651.6,7515.75
14982.3,7515.75
14982.3,7043.31
15651.6,7043.31
Z" /> 
</g>
<g >
</g>
<g style="fill:#000000; fill-opacity:1.0; 
stroke:#000000; stroke-width:0; stroke-opacity:1; 
stroke-linecap:round; stroke-linejoin:round;">
<path style="fill:#000000; fill-opacity:1.0; 
stroke:#000000; stroke-width:0; stroke-opacity:1; 
stroke-linecap:round; stroke-linejoin:round;fill-rule:evenodd;"
d="M 7151.58,14025.6
6482.28,14025.6
6482.28,13553.1
7151.58,13553.1
Z" /> 
<path style="fill:#000000; fill-opacity:1.0; 
stroke:#000000; stroke-width:0; stroke-opacity:1; 
stroke-linecap:round; stroke-linejoin:round;fill-rule:evenodd;"
d="M 7151.58,12765.7
6482.28,12765.7
6482.28,12293.3
7151.58,12293.3
Z" /> 
</g>
<g >
</g>
<g style="fill:#000000; fill-opacity:1.0; 
stroke:#000000; stroke-width:0; stroke-opacity:1; 
stroke-linecap:round; stroke-linejoin:round;">
<path style="fill:#000000; fill-opacity:1.0; 
stroke:#000000; stroke-width:0; stroke-opacity:1; 
stroke-linecap:round; stroke-linejoin:round;fill-rule:evenodd;"
d="M 13550.8,15464.2
13550.8,14794.9
14023.2,14794.9
14023.2,15464.2
Z" /> 
<path style="fill:#000000; fill-opacity:1.0; 
stroke:#000000; stroke-width:0; stroke-opacity:1; 
stroke-linecap:round; stroke-linejoin:round;fill-rule:evenodd;"
d="M 14810.6,15464.2
14810.6,14794.9
15283.1,14794.9
15283.1,15464.2
Z" /> 
</g>
<g >
</g>
<g style="fill:#000000; fill-opacity:1.0; 
stroke:#000000; stroke-width:0; stroke-opacity:1; 
stroke-linecap:round; stroke-linejoin:round;">
<path style="fill:#000000; fill-opacity:1.0; 
stroke:#000000; stroke-width:0; stroke-opacity:1; 
stroke-linecap:round; stroke-linejoin:round;fill-rule:evenodd;"
d="M 18401.6,16755.9
17732.3,16755.9
17732.3,16283.5
18401.6,16283.5
Z" /> 
<path style="fill:#000000; fill-opacity:1.0; 
stroke:#000000; stroke-width:0; stroke-opacity:1; 
stroke-linecap:round; stroke-linejoin:round;fill-rule:evenodd;"
d="M 18401.6,18015.7
17732.3,18015.7
17732.3,17543.3
18401.6,17543.3
Z" /> 
</g>
<g >
</g>
<g style="fill:#000000; fill-opacity:1.0; 
stroke:#000000; stroke-width:0; stroke-opacity:1; 
stroke-linecap:round; stroke-linejoin:round;">
<path style="fill:#000000; fill-opacity:1.0; 
stroke:#000000; stroke-width:0; stroke-opacity:1; 
stroke-linecap:round; stroke-linejoin:round;fill-rule:evenodd;"
d="M 20232.3,10543.3
20901.6,10543.3
20901.6,11015.7
20232.3,11015.7
Z" /> 
<path style="fill:#000000; fill-opacity:1.0; 
stroke:#000000; stroke-width:0; stroke-opacity:1; 
stroke-linecap:round; stroke-linejoin:round;fill-rule:evenodd;"
d="M 20232.3,9283.46
20901.6,9283.46
20901.6,9755.91
20232.3,9755.91
Z" /> 
</g>
<g >
</g>
<g style="fill:#000000; fill-opacity:1.0; 
stroke:#000000; stroke-width:0; stroke-opacity:1; 
stroke-linecap:round; stroke-linejoin:round;">
<path style="fill:#000000; fill-opacity:1.0; 
stroke:#000000; stroke-width:0; stroke-opacity:1; 
stroke-linecap:round; stroke-linejoin:round;fill-rule:evenodd;"
d="M 15923.2,16653.5
15923.2,15905.5
16710.6,15905.5
16710.6,16653.5
Z" /> 
<path style="fill:#000000; fill-opacity:1.0; 
stroke:#000000; stroke-width:0; stroke-opacity:1; 
stroke-linecap:round; stroke-linejoin:round;fill-rule:evenodd;"
d="M 16517.7,18740.2
16517.7,18149.6
17029.5,18149.6
17029.5,18740.2
Z" /> 
<path style="fill:#000000; fill-opacity:1.0; 
stroke:#000000; stroke-width:0; stroke-opacity:1; 
stroke-linecap:round; stroke-linejoin:round;fill-rule:evenodd;"
d="M 15608.3,18740.2
15608.3,18149.6
16120.1,18149.6
16120.1,18740.2
Z" /> 
</g>
<g >
</g>
<g style="fill:#000000; fill-opacity:1.0; 
stroke:#000000; stroke-width:0; stroke-opacity:1; 
stroke-linecap:round; stroke-linejoin:round;">
<path style="fill:#000000; fill-opacity:1.0; 
stroke:#000000; stroke-width:0; stroke-opacity:1; 
stroke-linecap:round; stroke-linejoin:round;fill-rule:evenodd;"
d="M 4137.8,11696.9
4728.35,11696.9
4728.35,12779.5
4137.8,12779.5
Z" /> 
<path style="fill:#000000; fill-opacity:1.0; 
stroke:#000000; stroke-width:0; stroke-opacity:1; 
stroke-linecap:round; stroke-linejoin:round;fill-rule:evenodd;"
d="M 4137.8,14354.3
4728.35,14354.3
4728.35,15437
4137.8,15437
Z" /> 
<path style="fill:#000000; fill-opacity:1.0; 
stroke:#000000; stroke-width:0; stroke-opacity:1; 
stroke-linecap:round; stroke-linejoin:round;fill-rule:evenodd;"
d="M 2562.99,11696.9
3153.54,11696.9
3153.54,12779.5
2562.99,12779.5
Z" /> 
<path style="fill:#000000; fill-opacity:1.0; 
stroke:#000000; stroke-width:0; stroke-opacity:1; 
stroke-linecap:round; stroke-linejoin:round;fill-rule:evenodd;"
d="M 2562.99,14354.3
3153.54,14354.3
3153.54,15437
2562.99,15437
Z" /> 
</g>
<g >
</g>
<g style="fill:#000000; fill-opacity:1.0; 
stroke:#000000; stroke-width:0; stroke-opacity:1; 
stroke-linecap:round; stroke-linejoin:round;">
<path style="fill:#000000; fill-opacity:1.0; 
stroke:#000000; stroke-width:0; stroke-opacity:1; 
stroke-linecap:round; stroke-linejoin:round;fill-rule:evenodd;"
d="M 8244.09,5872.05
8244.09,6187.01
7889.76,6187.01
7889.76,5872.05
Z" /> 
<path style="fill:#000000; fill-opacity:1.0; 
stroke:#000000; stroke-width:0; stroke-opacity:1; 
stroke-linecap:round; stroke-linejoin:round;fill-rule:evenodd;"
d="M 8244.09,5124.02
8244.09,5438.98
7889.76,5438.98
7889.76,5124.02
Z" /> 
<path style="fill:#000000; fill-opacity:1.0; 
stroke:#000000; stroke-width:0; stroke-opacity:1; 
stroke-linecap:round; stroke-linejoin:round;fill-rule:evenodd;"
d="M 7456.69,5498.03
7456.69,5812.99
7102.36,5812.99
7102.36,5498.03
Z" /> 
</g>
<g >
</g>
<g style="fill:#000000; fill-opacity:1.0; 
stroke:#000000; stroke-width:0; stroke-opacity:1; 
stroke-linecap:round; stroke-linejoin:round;">
<path style="fill:#000000; fill-opacity:1.0; 
stroke:#000000; stroke-width:0; stroke-opacity:1; 
stroke-linecap:round; stroke-linejoin:round;fill-rule:evenodd;"
d="M 8948.82,10897.6
8948.82,10661.4
9736.22,10661.4
9736.22,10897.6
Z" /> 
<path style="fill:#000000; fill-opacity:1.0; 
stroke:#000000; stroke-width:0; stroke-opacity:1; 
stroke-linecap:round; stroke-linejoin:round;fill-rule:evenodd;"
d="M 8948.82,11397.6
8948.82,11161.4
9736.22,11161.4
9736.22,11397.6
Z" /> 
<path style="fill:#000000; fill-opacity:1.0; 
stroke:#000000; stroke-width:0; stroke-opacity:1; 
stroke-linecap:round; stroke-linejoin:round;fill-rule:evenodd;"
d="M 8948.82,11897.6
8948.82,11661.4
9736.22,11661.4
9736.22,11897.6
Z" /> 
<path style="fill:#000000; fill-opacity:1.0; 
stroke:#000000; stroke-width:0; stroke-opacity:1; 
stroke-linecap:round; stroke-linejoin:round;fill-rule:evenodd;"
d="M 8948.82,12397.6
8948.82,12161.4
9736.22,12161.4
9736.22,12397.6
Z" /> 
<path style="fill:#000000; fill-opacity:1.0; 
stroke:#000000; stroke-width:0; stroke-opacity:1; 
stroke-linecap:round; stroke-linejoin:round;fill-rule:evenodd;"
d="M 8948.82,12897.6
8948.82,12661.4
9736.22,12661.4
9736.22,12897.6
Z" /> 
<path style="fill:#000000; fill-opacity:1.0; 
stroke:#000000; stroke-width:0; stroke-opacity:1; 
stroke-linecap:round; stroke-linejoin:round;fill-rule:evenodd;"
d="M 8948.82,13397.6
8948.82,13161.4
9736.22,13161.4
9736.22,13397.6
Z" /> 
<path style="fill:#000000; fill-opacity:1.0; 
stroke:#000000; stroke-width:0; stroke-opacity:1; 
stroke-linecap:round; stroke-linejoin:round;fill-rule:evenodd;"
d="M 8948.82,13897.6
8948.82,13661.4
9736.22,13661.4
9736.22,13897.6
Z" /> 
<path style="fill:#000000; fill-opacity:1.0; 
stroke:#000000; stroke-width:0; stroke-opacity:1; 
stroke-linecap:round; stroke-linejoin:round;fill-rule:evenodd;"
d="M 10897.6,13897.6
10897.6,13661.4
11685,13661.4
11685,13897.6
Z" /> 
<path style="fill:#000000; fill-opacity:1.0; 
stroke:#000000; stroke-width:0; stroke-opacity:1; 
stroke-linecap:round; stroke-linejoin:round;fill-rule:evenodd;"
d="M 10897.6,13397.6
10897.6,13161.4
11685,13161.4
11685,13397.6
Z" /> 
<path style="fill:#000000; fill-opacity:1.0; 
stroke:#000000; stroke-width:0; stroke-opacity:1; 
stroke-linecap:round; stroke-linejoin:round;fill-rule:evenodd;"
d="M 10897.6,12897.6
10897.6,12661.4
11685,12661.4
11685,12897.6
Z" /> 
<path style="fill:#000000; fill-opacity:1.0; 
stroke:#000000; stroke-width:0; stroke-opacity:1; 
stroke-linecap:round; stroke-linejoin:round;fill-rule:evenodd;"
d="M 10897.6,12397.6
10897.6,12161.4
11685,12161.4
11685,12397.6
Z" /> 
<path style="fill:#000000; fill-opacity:1.0; 
stroke:#000000; stroke-width:0; stroke-opacity:1; 
stroke-linecap:round; stroke-linejoin:round;fill-rule:evenodd;"
d="M 10897.6,11897.6
10897.6,11661.4
11685,11661.4
11685,11897.6
Z" /> 
<path style="fill:#000000; fill-opacity:1.0; 
stroke:#000000; stroke-width:0; stroke-opacity:1; 
stroke-linecap:round; stroke-linejoin:round;fill-rule:evenodd;"
d="M 10897.6,11397.6
10897.6,11161.4
11685,11161.4
11685,11397.6
Z" /> 
<path style="fill:#000000; fill-opacity:1.0; 
stroke:#000000; stroke-width:0; stroke-opacity:1; 
stroke-linecap:round; stroke-linejoin:round;fill-rule:evenodd;"
d="M 10897.6,10897.6
10897.6,10661.4
11685,10661.4
11685,10897.6
Z" /> 
</g>
<g >
</g>
<g style="fill:#000000; fill-opacity:1.0; 
stroke:#000000; stroke-width:0; stroke-opacity:1; 
stroke-linecap:round; stroke-linejoin:round;">
<path style="fill:#000000; fill-opacity:1.0; 
stroke:#000000; stroke-width:0; stroke-opacity:1; 
stroke-linecap:round; stroke-linejoin:round;fill-rule:evenodd;"
d="M 17364.2,11189
17364.2,11055.1
18013.8,11055.1
18013.8,11189
Z" /> 
<path style="fill:#000000; fill-opacity:1.0; 
stroke:#000000; stroke-width:0; stroke-opacity:1; 
stroke-linecap:round; stroke-linejoin:round;fill-rule:evenodd;"
d="M 17364.2,11444.9
17364.2,11311
18013.8,11311
18013.8,11444.9
Z" /> 
<path style="fill:#000000; fill-opacity:1.0; 
stroke:#000000; stroke-width:0; stroke-opacity:1; 
stroke-linecap:round; stroke-linejoin:round;fill-rule:evenodd;"
d="M 17364.2,11700.8
17364.2,11566.9
18013.8,11566.9
18013.8,11700.8
Z" /> 
<path style="fill:#000000; fill-opacity:1.0; 
stroke:#000000; stroke-width:0; stroke-opacity:1; 
stroke-linecap:round; stroke-linejoin:round;fill-rule:evenodd;"
d="M 17364.2,11956.7
17364.2,11822.8
18013.8,11822.8
18013.8,11956.7
Z" /> 
<path style="fill:#000000; fill-opacity:1.0; 
stroke:#000000; stroke-width:0; stroke-opacity:1; 
stroke-linecap:round; stroke-linejoin:round;fill-rule:evenodd;"
d="M 17364.2,12212.6
17364.2,12078.7
18013.8,12078.7
18013.8,12212.6
Z" /> 
<path style="fill:#000000; fill-opacity:1.0; 
stroke:#000000; stroke-width:0; stroke-opacity:1; 
stroke-linecap:round; stroke-linejoin:round;fill-rule:evenodd;"
d="M 17364.2,12468.5
17364.2,12334.6
18013.8,12334.6
18013.8,12468.5
Z" /> 
<path style="fill:#000000; fill-opacity:1.0; 
stroke:#000000; stroke-width:0; stroke-opacity:1; 
stroke-linecap:round; stroke-linejoin:round;fill-rule:evenodd;"
d="M 17364.2,12724.4
17364.2,12590.6
18013.8,12590.6
18013.8,12724.4
Z" /> 
<path style="fill:#000000; fill-opacity:1.0; 
stroke:#000000; stroke-width:0; stroke-opacity:1; 
stroke-linecap:round; stroke-linejoin:round;fill-rule:evenodd;"
d="M 17364.2,12980.3
17364.2,12846.5
18013.8,12846.5
18013.8,12980.3
Z" /> 
<path style="fill:#000000; fill-opacity:1.0; 
stroke:#000000; stroke-width:0; stroke-opacity:1; 
stroke-linecap:round; stroke-linejoin:round;fill-rule:evenodd;"
d="M 17364.2,13236.2
17364.2,13102.4
18013.8,13102.4
18013.8,13236.2
Z" /> 
<path style="fill:#000000; fill-opacity:1.0; 
stroke:#000000; stroke-width:0; stroke-opacity:1; 
stroke-linecap:round; stroke-linejoin:round;fill-rule:evenodd;"
d="M 17364.2,13492.1
17364.2,13358.3
18013.8,13358.3
18013.8,13492.1
Z" /> 
<path style="fill:#000000; fill-opacity:1.0; 
stroke:#000000; stroke-width:0; stroke-opacity:1; 
stroke-linecap:round; stroke-linejoin:round;fill-rule:evenodd;"
d="M 17364.2,13748
17364.2,13614.2
18013.8,13614.2
18013.8,13748
Z" /> 
<path style="fill:#000000; fill-opacity:1.0; 
stroke:#000000; stroke-width:0; stroke-opacity:1; 
stroke-linecap:round; stroke-linejoin:round;fill-rule:evenodd;"
d="M 17364.2,14003.9
17364.2,13870.1
18013.8,13870.1
18013.8,14003.9
Z" /> 
<path style="fill:#000000; fill-opacity:1.0; 
stroke:#000000; stroke-width:0; stroke-opacity:1; 
stroke-linecap:round; stroke-linejoin:round;fill-rule:evenodd;"
d="M 15120.1,14003.9
15120.1,13870.1
15769.7,13870.1
15769.7,14003.9
Z" /> 
<path style="fill:#000000; fill-opacity:1.0; 
stroke:#000000; stroke-width:0; stroke-opacity:1; 
stroke-linecap:round; stroke-linejoin:round;fill-rule:evenodd;"
d="M 15120.1,13748
15120.1,13614.2
15769.7,13614.2
15769.7,13748
Z" /> 
<path style="fill:#000000; fill-opacity:1.0; 
stroke:#000000; stroke-width:0; stroke-opacity:1; 
stroke-linecap:round; stroke-linejoin:round;fill-rule:evenodd;"
d="M 15120.1,13492.1
15120.1,13358.3
15769.7,13358.3
15769.7,13492.1
Z" /> 
<path style="fill:#000000; fill-opacity:1.0; 
stroke:#000000; stroke-width:0; stroke-opacity:1; 
stroke-linecap:round; stroke-linejoin:round;fill-rule:evenodd;"
d="M 15120.1,13236.2
15120.1,13102.4
15769.7,13102.4
15769.7,13236.2
Z" /> 
<path style="fill:#000000; fill-opacity:1.0; 
stroke:#000000; stroke-width:0; stroke-opacity:1; 
stroke-linecap:round; stroke-linejoin:round;fill-rule:evenodd;"
d="M 15120.1,12980.3
15120.1,12846.5
15769.7,12846.5
15769.7,12980.3
Z" /> 
<path style="fill:#000000; fill-opacity:1.0; 
stroke:#000000; stroke-width:0; stroke-opacity:1; 
stroke-linecap:round; stroke-linejoin:round;fill-rule:evenodd;"
d="M 15120.1,12724.4
15120.1,12590.6
15769.7,12590.6
15769.7,12724.4
Z" /> 
<path style="fill:#000000; fill-opacity:1.0; 
stroke:#000000; stroke-width:0; stroke-opacity:1; 
stroke-linecap:round; stroke-linejoin:round;fill-rule:evenodd;"
d="M 15120.1,12468.5
15120.1,12334.6
15769.7,12334.6
15769.7,12468.5
Z" /> 
<path style="fill:#000000; fill-opacity:1.0; 
stroke:#000000; stroke-width:0; stroke-opacity:1; 
stroke-linecap:round; stroke-linejoin:round;fill-rule:evenodd;"
d="M 15120.1,12212.6
15120.1,12078.7
15769.7,12078.7
15769.7,12212.6
Z" /> 
<path style="fill:#000000; fill-opacity:1.0; 
stroke:#000000; stroke-width:0; stroke-opacity:1; 
stroke-linecap:round; stroke-linejoin:round;fill-rule:evenodd;"
d="M 15120.1,11956.7
15120.1,11822.8
15769.7,11822.8
15769.7,11956.7
Z" /> 
<path style="fill:#000000; fill-opacity:1.0; 
stroke:#000000; stroke-width:0; stroke-opacity:1; 
stroke-linecap:round; stroke-linejoin:round;fill-rule:evenodd;"
d="M 15120.1,11700.8
15120.1,11566.9
15769.7,11566.9
15769.7,11700.8
Z" /> 
<path style="fill:#000000; fill-opacity:1.0; 
stroke:#000000; stroke-width:0; stroke-opacity:1; 
stroke-linecap:round; stroke-linejoin:round;fill-rule:evenodd;"
d="M 15120.1,11444.9
15120.1,11311
15769.7,11311
15769.7,11444.9
Z" /> 
<path style="fill:#000000; fill-opacity:1.0; 
stroke:#000000; stroke-width:0; stroke-opacity:1; 
stroke-linecap:round; stroke-linejoin:round;fill-rule:evenodd;"
d="M 15120.1,11189
15120.1,11055.1
15769.7,11055.1
15769.7,11189
Z" /> 
<path style="fill:#000000; fill-opacity:1.0; 
stroke:#000000; stroke-width:0; stroke-opacity:1; 
stroke-linecap:round; stroke-linejoin:round;fill-rule:evenodd;"
d="M 15976.4,13379.9
15976.4,11679.1
17157.5,11679.1
17157.5,13379.9
Z" /> 
</g>
<g >
</g>
<g style="fill:#000000; fill-opacity:1.0; 
stroke:#000000; stroke-width:0; stroke-opacity:1; 
stroke-linecap:round; stroke-linejoin:round;">
<path style="fill:#000000; fill-opacity:1.0; 
stroke:#000000; stroke-width:0; stroke-opacity:1; 
stroke-linecap:round; stroke-linejoin:round;fill-rule:evenodd;"
d="M 12053.1,4807.09
11580.7,4807.09
11580.7,4452.76
12053.1,4452.76
Z" /> 
<path style="fill:#000000; fill-opacity:1.0; 
stroke:#000000; stroke-width:0; stroke-opacity:1; 
stroke-linecap:round; stroke-linejoin:round;fill-rule:evenodd;"
d="M 12053.1,6106.3
11580.7,6106.3
11580.7,5751.97
12053.1,5751.97
Z" /> 
</g>
<g >
</g>
<g style="fill:#000000; fill-opacity:1.0; 
stroke:#000000; stroke-width:0; stroke-opacity:1; 
stroke-linecap:round; stroke-linejoin:round;">
<path style="fill:#000000; fill-opacity:1.0; 
stroke:#000000; stroke-width:0; stroke-opacity:1; 
stroke-linecap:round; stroke-linejoin:round;fill-rule:evenodd;"
d="M 10543.3,7293.31
10543.3,7765.75
10189,7765.75
10189,7293.31
Z" /> 
<path style="fill:#000000; fill-opacity:1.0; 
stroke:#000000; stroke-width:0; stroke-opacity:1; 
stroke-linecap:round; stroke-linejoin:round;fill-rule:evenodd;"
d="M 9244.09,7293.31
9244.09,7765.75
8889.76,7765.75
8889.76,7293.31
Z" /> 
</g>
<g >
</g>
<g style="fill:#000000; fill-opacity:1.0; 
stroke:#000000; stroke-width:0; stroke-opacity:1; 
stroke-linecap:round; stroke-linejoin:round;">
<circle cx="8316.93" cy="10029.5" r="314.961" /> 
</g>
<g style="fill:#000000; fill-opacity:1.0; 
stroke:#000000; stroke-width:39.3701; stroke-opacity:1; 
stroke-linecap:round; stroke-linejoin:round;">
</g>
<g style="fill:#000000; fill-opacity:1.0; 
stroke:#000000; stroke-width:0; stroke-opacity:1; 
stroke-linecap:round; stroke-linejoin:round;">
<circle cx="14437.5" cy="14050.1" r="314.961" /> 
</g>
<g style="fill:#000000; fill-opacity:1.0; 
stroke:#000000; stroke-width:39.3701; stroke-opacity:1; 
stroke-linecap:round; stroke-linejoin:round;">
</g>
<g style="fill:#000000; fill-opacity:1.0; 
stroke:#000000; stroke-width:0; stroke-opacity:1; 
stroke-linecap:round; stroke-linejoin:round;">
<circle cx="12416.9" cy="16529.5" r="314.961" /> 
</g>
<g style="fill:#000000; fill-opacity:1.0; 
stroke:#000000; stroke-width:39.3701; stroke-opacity:1; 
stroke-linecap:round; stroke-linejoin:round;">
</g>
<g style="fill:#000000; fill-opacity:1.0; 
stroke:#000000; stroke-width:0; stroke-opacity:1; 
stroke-linecap:round; stroke-linejoin:round;">
<circle cx="16566.9" cy="12029.5" r="314.961" /> 
</g>
<g style="fill:#000000; fill-opacity:1.0; 
stroke:#000000; stroke-width:39.3701; stroke-opacity:1; 
stroke-linecap:round; stroke-linejoin:round;">
</g>
<g style="fill:#000000; fill-opacity:1.0; 
stroke:#000000; stroke-width:0; stroke-opacity:1; 
stroke-linecap:round; stroke-linejoin:round;">
<circle cx="12816.9" cy="13779.5" r="314.961" /> 
</g>
<g style="fill:#000000; fill-opacity:1.0; 
stroke:#000000; stroke-width:39.3701; stroke-opacity:1; 
stroke-linecap:round; stroke-linejoin:round;">
</g>
<g style="fill:#000000; fill-opacity:1.0; 
stroke:#000000; stroke-width:0; stroke-opacity:1; 
stroke-linecap:round; stroke-linejoin:round;">
<circle cx="16566.9" cy="13029.5" r="314.961" /> 
</g>
<g style="fill:#000000; fill-opacity:1.0; 
stroke:#000000; stroke-width:39.3701; stroke-opacity:1; 
stroke-linecap:round; stroke-linejoin:round;">
</g>
<g style="fill:#000000; fill-opacity:1.0; 
stroke:#000000; stroke-width:0; stroke-opacity:1; 
stroke-linecap:round; stroke-linejoin:round;">
<circle cx="17816.9" cy="14529.5" r="314.961" /> 
</g>
<g style="fill:#000000; fill-opacity:1.0; 
stroke:#000000; stroke-width:39.3701; stroke-opacity:1; 
stroke-linecap:round; stroke-linejoin:round;">
</g>
<g style="fill:#000000; fill-opacity:1.0; 
stroke:#000000; stroke-width:0; stroke-opacity:1; 
stroke-linecap:round; stroke-linejoin:round;">
<circle cx="17066.9" cy="10279.5" r="314.961" /> 
</g>
<g style="fill:#000000; fill-opacity:1.0; 
stroke:#000000; stroke-width:39.3701; stroke-opacity:1; 
stroke-linecap:round; stroke-linejoin:round;">
</g>
<g style="fill:#000000; fill-opacity:1.0; 
stroke:#000000; stroke-width:0; stroke-opacity:1; 
stroke-linecap:round; stroke-linejoin:round;">
<circle cx="20566.9" cy="15279.5" r="314.961" /> 
</g>
<g style="fill:#000000; fill-opacity:1.0; 
stroke:#000000; stroke-width:39.3701; stroke-opacity:1; 
stroke-linecap:round; stroke-linejoin:round;">
</g>
<g style="fill:#000000; fill-opacity:1.0; 
stroke:#000000; stroke-width:0; stroke-opacity:1; 
stroke-linecap:round; stroke-linejoin:round;">
<circle cx="7092.52" cy="8858.27" r="314.961" /> 
</g>
<g style="fill:#000000; fill-opacity:1.0; 
stroke:#000000; stroke-width:39.3701; stroke-opacity:1; 
stroke-linecap:round; stroke-linejoin:round;">
</g>
<g style="fill:#000000; fill-opacity:1.0; 
stroke:#000000; stroke-width:0; stroke-opacity:1; 
stroke-linecap:round; stroke-linejoin:round;">
<circle cx="12316.9" cy="9529.53" r="314.961" /> 
</g>
<g style="fill:#000000; fill-opacity:1.0; 
stroke:#000000; stroke-width:39.3701; stroke-opacity:1; 
stroke-linecap:round; stroke-linejoin:round;">
</g>
<g style="fill:#000000; fill-opacity:1.0; 
stroke:#000000; stroke-width:0; stroke-opacity:1; 
stroke-linecap:round; stroke-linejoin:round;">
<circle cx="4816.93" cy="4779.53" r="314.961" /> 
</g>
<g style="fill:#000000; fill-opacity:1.0; 
stroke:#000000; stroke-width:39.3701; stroke-opacity:1; 
stroke-linecap:round; stroke-linejoin:round;">
</g>
<g style="fill:#000000; fill-opacity:1.0; 
stroke:#000000; stroke-width:0; stroke-opacity:1; 
stroke-linecap:round; stroke-linejoin:round;">
<circle cx="20316.9" cy="13129.5" r="314.961" /> 
</g>
<g style="fill:#000000; fill-opacity:1.0; 
stroke:#000000; stroke-width:39.3701; stroke-opacity:1; 
stroke-linecap:round; stroke-linejoin:round;">
</g>
<g style="fill:#000000; fill-opacity:1.0; 
stroke:#000000; stroke-width:0; stroke-opacity:1; 
stroke-linecap:round; stroke-linejoin:round;">
<circle cx="18177.2" cy="9582.55" r="314.961" /> 
</g>
<g style="fill:#000000; fill-opacity:1.0; 
stroke:#000000; stroke-width:39.3701; stroke-opacity:1; 
stroke-linecap:round; stroke-linejoin:round;">
</g>
<g style="fill:#000000; fill-opacity:1.0; 
stroke:#000000; stroke-width:0; stroke-opacity:1; 
stroke-linecap:round; stroke-linejoin:round;">
<circle cx="10566.9" cy="14279.5" r="314.961" /> 
</g>
<g style="fill:#000000; fill-opacity:1.0; 
stroke:#000000; stroke-width:39.3701; stroke-opacity:1; 
stroke-linecap:round; stroke-linejoin:round;">
</g>
<g style="fill:#000000; fill-opacity:1.0; 
stroke:#000000; stroke-width:0; stroke-opacity:1; 
stroke-linecap:round; stroke-linejoin:round;">
<circle cx="7566.93" cy="14279.5" r="314.961" /> 
</g>
<g style="fill:#000000; fill-opacity:1.0; 
stroke:#000000; stroke-width:39.3701; stroke-opacity:1; 
stroke-linecap:round; stroke-linejoin:round;">
</g>
<g >
</g>
<g style="fill:#000000; fill-opacity:1.0; 
stroke:#000000; stroke-width:39.3701; stroke-opacity:1; 
stroke-linecap:round; stroke-linejoin:round;">
</g>
<g style="fill:#000000; fill-opacity:1.0; 
stroke:#000000; stroke-width:314.961; stroke-opacity:1; 
stroke-linecap:round; stroke-linejoin:round;">
</g>
<g style="fill:#000000; fill-opacity:0.0; 
stroke:#000000; stroke-width:314.961; stroke-opacity:1; 
stroke-linecap:round; stroke-linejoin:round;">
<path d="M10316 7480
L10366 7529
" />
<path d="M10316 6029
L10316 7480
" />
<path d="M9316 10753
L9342 10779
" />
<path d="M9316 10029
L9316 10753
" />
<path d="M10366 8980
L9316 10029
" />
<path d="M10366 7529
L10366 8980
" />
<path d="M10417 5929
L10316 6029
" />
<path d="M11816 5929
L10417 5929
" />
</g>
<g style="fill:#000000; fill-opacity:0.0; 
stroke:#000000; stroke-width:236.22; stroke-opacity:1; 
stroke-linecap:round; stroke-linejoin:round;">
<path d="M9316 10029
L8316 10029
" />
</g>
<g style="fill:#000000; fill-opacity:0.0; 
stroke:#000000; stroke-width:314.961; stroke-opacity:1; 
stroke-linecap:round; stroke-linejoin:round;">
<path d="M15655 15590
L17688 15590
" />
<path d="M14888 16358
L15655 15590
" />
<path d="M18066 15968
L18066 16519
" />
<path d="M17688 15590
L18066 15968
" />
<path d="M14066 16358
L14888 16358
" />
<path d="M15076 15189
L15566 15679
" />
</g>
<g style="fill:#000000; fill-opacity:0.0; 
stroke:#000000; stroke-width:118.11; stroke-opacity:1; 
stroke-linecap:round; stroke-linejoin:round;">
<path d="M15444 13425
L14962 13425
" />
<path d="M14962 13425
L14437 13950
" />
<path d="M14437 13950
L14437 14050
" />
</g>
<g style="fill:#000000; fill-opacity:0.0; 
stroke:#000000; stroke-width:236.22; stroke-opacity:1; 
stroke-linecap:round; stroke-linejoin:round;">
<path d="M14066 16358
L12588 16358
" />
<path d="M12588 16358
L12416 16529
" />
</g>
<g style="fill:#000000; fill-opacity:0.0; 
stroke:#000000; stroke-width:314.961; stroke-opacity:1; 
stroke-linecap:round; stroke-linejoin:round;">
<path d="M2858 14895
L2858 12238
" />
<path d="M2858 12238
L2858 10710
" />
<path d="M7279 7316
L7066 7529
" />
<path d="M7279 5655
L7279 7316
" />
<path d="M7066 7874
L7066 7529
" />
<path d="M7066 8883
L7066 7874
" />
<path d="M7092 8858
L7066 8883
" />
<path d="M9316 8858
L7092 8858
" />
<path d="M2858 15751
L3344 16238
" />
<path d="M2858 14895
L2858 15751
" />
<path d="M14196 8539
L14066 8409
" />
<path d="M15316 8539
L14196 8539
" />
<path d="M19392 9519
L19316 9443
" />
<path d="M20566 9519
L19392 9519
" />
<path d="M17826 14200
L17688 14062
" />
<path d="M17072 14200
L17826 14200
" />
<path d="M16566 13694
L17072 14200
" />
<path d="M16566 12529
L16566 13029
" />
<path d="M11291 10779
L11291 9564
" />
<path d="M12446 8409
L14066 8409
" />
<path d="M11291 9564
L12446 8409
" />
<path d="M12816 13029
L12816 13779
" />
<path d="M14982 18444
L14066 17529
" />
<path d="M15864 18444
L14982 18444
" />
<path d="M2724 3879
L1549 5055
" />
<path d="M9895 3879
L2724 3879
" />
<path d="M1549 5055
L1549 9480
" />
<path d="M10446 4431
L9895 3879
" />
<path d="M10446 4529
L10446 4431
" />
<path d="M6816 13789
L6816 16324
" />
<path d="M6730 16238
L6816 16324
" />
<path d="M3344 16238
L6730 16238
" />
</g>
<g style="fill:#000000; fill-opacity:0.0; 
stroke:#000000; stroke-width:118.11; stroke-opacity:1; 
stroke-linecap:round; stroke-linejoin:round;">
<path d="M16183 12913
L16566 12529
" />
<path d="M15444 12913
L16183 12913
" />
</g>
<g style="fill:#000000; fill-opacity:0.0; 
stroke:#000000; stroke-width:314.961; stroke-opacity:1; 
stroke-linecap:round; stroke-linejoin:round;">
<path d="M16566 13029
L16566 13694
" />
</g>
<g style="fill:#000000; fill-opacity:0.0; 
stroke:#000000; stroke-width:236.22; stroke-opacity:1; 
stroke-linecap:round; stroke-linejoin:round;">
<path d="M21228 14200
L21316 14289
" />
<path d="M17826 14519
L17816 14529
" />
<path d="M17826 14200
L17826 14519
" />
<path d="M18316 3779
L20320 3779
" />
</g>
<g style="fill:#000000; fill-opacity:0.0; 
stroke:#000000; stroke-width:118.11; stroke-opacity:1; 
stroke-linecap:round; stroke-linejoin:round;">
<path d="M17688 10901
L17066 10279
" />
<path d="M17688 11122
L17688 10901
" />
</g>
<g style="fill:#000000; fill-opacity:0.0; 
stroke:#000000; stroke-width:236.22; stroke-opacity:1; 
stroke-linecap:round; stroke-linejoin:round;">
<path d="M20488 14200
L20488 15200
" />
<path d="M20488 15200
L20566 15279
" />
<path d="M20488 14200
L21228 14200
" />
<path d="M20566 9047
L20566 9519
" />
<path d="M20320 8800
L20566 9047
" />
<path d="M20320 3779
L20320 8800
" />
</g>
<g style="fill:#000000; fill-opacity:0.0; 
stroke:#000000; stroke-width:314.961; stroke-opacity:1; 
stroke-linecap:round; stroke-linejoin:round;">
<path d="M17025 1779
L18316 3070
" />
<path d="M18316 3070
L18316 3779
" />
<path d="M12316 1779
L17025 1779
" />
<path d="M10446 3649
L12316 1779
" />
<path d="M10446 4529
L10446 3649
" />
</g>
<g style="fill:#000000; fill-opacity:0.0; 
stroke:#000000; stroke-width:236.22; stroke-opacity:1; 
stroke-linecap:round; stroke-linejoin:round;">
<path d="M16416 6429
L18316 4529
" />
<path d="M15887 8058
L16416 7529
" />
<path d="M16416 7529
L16416 6429
" />
<path d="M15415 8539
L15887 8066
" />
<path d="M18316 4529
L18316 4029
" />
<path d="M15887 8066
L15887 8058
" />
<path d="M15316 8539
L15415 8539
" />
<path d="M19416 18329
L19416 14581
" />
<path d="M15864 18444
L15864 18484
" />
<path d="M18716 19029
L19416 18329
" />
<path d="M16409 19029
L18716 19029
" />
<path d="M19316 14481
L19316 14200
" />
<path d="M19416 14581
L19316 14481
" />
<path d="M15864 18484
L16409 19029
" />
<path d="M19316 14200
L20488 14200
" />
<path d="M22416 13760
L21887 14289
" />
<path d="M21887 14289
L21316 14289
" />
<path d="M22416 5876
L22416 13760
" />
<path d="M20320 3779
L22416 5876
" />
</g>
<g style="fill:#000000; fill-opacity:0.0; 
stroke:#000000; stroke-width:314.961; stroke-opacity:1; 
stroke-linecap:round; stroke-linejoin:round;">
<path d="M8725 17329
L9066 16988
" />
<path d="M7616 17329
L8725 17329
" />
<path d="M6816 16529
L7616 17329
" />
<path d="M6816 16324
L6816 16529
" />
<path d="M9066 16988
L9066 16279
" />
<path d="M13703 17548
L13722 17529
" />
<path d="M13722 17529
L14066 17529
" />
<path d="M8944 17548
L13703 17548
" />
<path d="M8725 17329
L8944 17548
" />
</g>
<g style="fill:#000000; fill-opacity:0.0; 
stroke:#000000; stroke-width:236.22; stroke-opacity:1; 
stroke-linecap:round; stroke-linejoin:round;">
<path d="M2133 9480
L2897 10243
" />
<path d="M1549 9480
L2133 9480
" />
<path d="M5706 10243
L7092 8858
" />
<path d="M5299 10243
L5706 10243
" />
</g>
<g style="fill:#000000; fill-opacity:0.0; 
stroke:#000000; stroke-width:118.11; stroke-opacity:1; 
stroke-linecap:round; stroke-linejoin:round;">
<path d="M12848 11889
L12816 11858
" />
<path d="M15444 11889
L12848 11889
" />
</g>
<g style="fill:#000000; fill-opacity:0.0; 
stroke:#000000; stroke-width:314.961; stroke-opacity:1; 
stroke-linecap:round; stroke-linejoin:round;">
<path d="M8047 5281
L8066 5281
" />
<path d="M6653 4809
L7574 4809
" />
<path d="M5683 5779
L6653 4809
" />
<path d="M7574 4809
L8047 5281
" />
</g>
<g style="fill:#000000; fill-opacity:0.0; 
stroke:#000000; stroke-width:118.11; stroke-opacity:1; 
stroke-linecap:round; stroke-linejoin:round;">
<path d="M19177 13169
L19316 13029
" />
<path d="M17688 13169
L19177 13169
" />
</g>
<g style="fill:#000000; fill-opacity:0.0; 
stroke:#000000; stroke-width:236.22; stroke-opacity:1; 
stroke-linecap:round; stroke-linejoin:round;">
<path d="M13316 9529
L12316 9529
" />
<path d="M19316 13029
L19416 13129
" />
<path d="M19416 13129
L19871 13129
" />
<path d="M19871 13129
L20316 13129
" />
<path d="M19316 10615
L18972 10615
" />
<path d="M18972 10615
L18177 9819
" />
<path d="M18177 9819
L18177 9582
" />
</g>
<g style="fill:#000000; fill-opacity:0.0; 
stroke:#000000; stroke-width:118.11; stroke-opacity:1; 
stroke-linecap:round; stroke-linejoin:round;">
<path d="M19316 10770
L18198 11889
" />
<path d="M19316 10615
L19316 10770
" />
<path d="M18198 11889
L18131 11889
" />
<path d="M18131 11889
L17688 11889
" />
</g>
<g style="fill:#000000; fill-opacity:0.0; 
stroke:#000000; stroke-width:236.22; stroke-opacity:1; 
stroke-linecap:round; stroke-linejoin:round;">
<path d="M4816 5273
L5299 5755
" />
<path d="M4816 4779
L4816 5273
" />
<path d="M5299 5755
L2897 5755
" />
</g>
<g style="fill:#000000; fill-opacity:0.0; 
stroke:#000000; stroke-width:118.11; stroke-opacity:1; 
stroke-linecap:round; stroke-linejoin:round;">
<path d="M13969 11633
L15444 11633
" />
<path d="M13316 10981
L13969 11633
" />
<path d="M13316 10700
L13316 10981
" />
<path d="M14963 11377
L15001 11377
" />
<path d="M15001 11377
L15444 11377
" />
<path d="M14566 10981
L14963 11377
" />
<path d="M14566 10700
L14566 10981
" />
<path d="M15444 10937
L15444 11122
" />
<path d="M15444 10062
L15444 10937
" />
<path d="M14911 9529
L15444 10062
" />
<path d="M14566 9529
L14911 9529
" />
</g>
<g style="fill:#000000; fill-opacity:0.0; 
stroke:#000000; stroke-width:157.48; stroke-opacity:1; 
stroke-linecap:round; stroke-linejoin:round;">
<path d="M8066 7358
L8238 7529
" />
<path d="M8066 6029
L8066 7358
" />
<path d="M9066 7529
L8238 7529
" />
<path d="M9187 5988
L9145 6029
" />
<path d="M9187 4529
L9187 5988
" />
</g>
<g style="fill:#000000; fill-opacity:0.0; 
stroke:#000000; stroke-width:118.11; stroke-opacity:1; 
stroke-linecap:round; stroke-linejoin:round;">
<path d="M14066 6200
L14066 7149
" />
<path d="M14316 4779
L14066 5029
" />
<path d="M14316 3779
L14316 4779
" />
<path d="M10416 9909
L10416 13216
" />
<path d="M13545 6502
L13545 6781
" />
<path d="M10416 13216
L9854 13779
" />
<path d="M13541 6498
L13545 6502
" />
<path d="M13541 5902
L13541 6498
" />
<path d="M13545 5898
L13541 5902
" />
<path d="M13545 6781
L10416 9909
" />
<path d="M13545 5206
L13545 5898
" />
<path d="M13722 5029
L13545 5206
" />
<path d="M9854 13779
L9342 13779
" />
<path d="M14066 5029
L13722 5029
" />
<path d="M15316 3779
L15316 5108
" />
<path d="M12566 7308
L12566 3279
" />
<path d="M15316 3517
L15316 4029
" />
<path d="M10062 9812
L12566 7308
" />
<path d="M12566 3279
L13066 2779
" />
<path d="M13066 2779
L14578 2779
" />
<path d="M14578 2779
L15316 3517
" />
<path d="M10062 13070
L10062 9812
" />
<path d="M9342 13279
L9854 13279
" />
<path d="M9854 13279
L10062 13070
" />
<path d="M15316 6279
L15316 7279
" />
<path d="M8152 11779
L7902 11529
" />
<path d="M9342 11779
L8152 11779
" />
<path d="M6816 11615
L6731 11529
" />
<path d="M6816 12529
L6816 11615
" />
</g>
<g style="fill:#000000; fill-opacity:0.0; 
stroke:#000000; stroke-width:236.22; stroke-opacity:1; 
stroke-linecap:round; stroke-linejoin:round;">
<path d="M21616 10326
L21215 9925
" />
<path d="M21215 7265
L21215 6779
" />
<path d="M21616 12036
L21616 10326
" />
<path d="M21610 12029
L21616 12036
" />
<path d="M21215 9925
L21215 7265
" />
<path d="M19916 12029
L21610 12029
" />
</g>
<g style="fill:#000000; fill-opacity:0.0; 
stroke:#000000; stroke-width:118.11; stroke-opacity:1; 
stroke-linecap:round; stroke-linejoin:round;">
<path d="M18131 12657
L17688 12657
" />
<path d="M18449 12657
L18131 12657
" />
<path d="M19077 12029
L18449 12657
" />
<path d="M19916 12029
L19077 12029
" />
</g>
<g style="fill:#000000; fill-opacity:0.0; 
stroke:#000000; stroke-width:236.22; stroke-opacity:1; 
stroke-linecap:round; stroke-linejoin:round;">
<path d="M18736 7110
L19066 6779
" />
<path d="M18930 9964
L18732 9766
" />
<path d="M18736 9117
L18736 7110
" />
<path d="M18732 9121
L18736 9117
" />
<path d="M18936 9964
L18930 9964
" />
<path d="M19001 10029
L18936 9964
" />
<path d="M20812 10029
L19001 10029
" />
<path d="M21216 10433
L20812 10029
" />
<path d="M18732 9766
L18732 9121
" />
<path d="M21216 11629
L21216 10433
" />
<path d="M19616 11629
L21216 11629
" />
</g>
<g style="fill:#000000; fill-opacity:0.0; 
stroke:#000000; stroke-width:118.11; stroke-opacity:1; 
stroke-linecap:round; stroke-linejoin:round;">
<path d="M18131 12401
L17688 12401
" />
<path d="M19137 11629
L18365 12401
" />
<path d="M18365 12401
L18131 12401
" />
<path d="M19616 11629
L19137 11629
" />
<path d="M17688 13425
L18546 13425
" />
<path d="M18546 13425
L18853 13732
" />
<path d="M18853 13732
L21338 13732
" />
<path d="M21338 13732
L21385 13779
" />
</g>
<g style="fill:#000000; fill-opacity:0.0; 
stroke:#000000; stroke-width:236.22; stroke-opacity:1; 
stroke-linecap:round; stroke-linejoin:round;">
<path d="M22033 10236
L22025 10228
" />
<path d="M21492 13779
L22033 13238
" />
<path d="M21385 13779
L21492 13779
" />
<path d="M22033 13238
L22033 10236
" />
<path d="M22025 10228
L22025 6339
" />
<path d="M21465 5779
L21215 5779
" />
<path d="M22025 6339
L21465 5779
" />
<path d="M17622 9316
L17622 10134
" />
<path d="M17622 10134
L18316 10829
" />
<path d="M19066 5779
L18330 5779
" />
<path d="M17633 6476
L17633 9304
" />
<path d="M18330 5779
L17633 6476
" />
<path d="M17633 9304
L17622 9316
" />
</g>
<g style="fill:#000000; fill-opacity:0.0; 
stroke:#000000; stroke-width:118.11; stroke-opacity:1; 
stroke-linecap:round; stroke-linejoin:round;">
<path d="M18114 11633
L18316 11431
" />
<path d="M17688 11633
L18114 11633
" />
<path d="M18316 11431
L18316 10829
" />
<path d="M11291 12779
L10960 12779
" />
<path d="M7566 14279
L7566 15482
" />
<path d="M7614 16279
L8066 16279
" />
<path d="M7566 16232
L7614 16279
" />
<path d="M7566 15482
L7566 16232
" />
<path d="M10657 12901
L10657 13743
" />
<path d="M10657 13743
L10566 13834
" />
<path d="M10566 13834
L10566 14279
" />
<path d="M10779 12779
L10657 12901
" />
<path d="M11291 12779
L10779 12779
" />
<path d="M14616 13169
L15444 13169
" />
<path d="M13818 13967
L14616 13169
" />
<path d="M13816 14326
L13818 14324
" />
<path d="M13816 15099
L13816 14326
" />
<path d="M13587 15329
L13816 15099
" />
<path d="M11516 15329
L13587 15329
" />
<path d="M11291 15103
L11516 15329
" />
<path d="M11291 13779
L11291 15103
" />
<path d="M13818 14324
L13818 13967
" />
<path d="M18066 18133
L17755 18444
" />
<path d="M17147 18444
L16773 18444
" />
<path d="M17755 18444
L17147 18444
" />
<path d="M18066 17779
L18066 18133
" />
<path d="M20471 11229
L20566 11133
" />
<path d="M17688 12145
L18281 12145
" />
<path d="M19198 11229
L20471 11229
" />
<path d="M18281 12145
L19198 11229
" />
<path d="M20566 11133
L20566 10779
" />
<path d="M21316 12675
L21316 13029
" />
<path d="M21071 12429
L21316 12675
" />
<path d="M19016 12429
L21071 12429
" />
<path d="M18533 12913
L19016 12429
" />
<path d="M17688 12913
L18533 12913
" />
<path d="M17843 15216
L16539 15216
" />
<path d="M18716 16089
L17843 15216
" />
<path d="M16539 15216
L15444 14122
" />
<path d="M18716 16923
L18716 16089
" />
<path d="M17316 17029
L18611 17029
" />
<path d="M16566 16279
L17316 17029
" />
<path d="M18611 17029
L18716 16923
" />
<path d="M15444 14122
L15444 13937
" />
<path d="M16316 16279
L16566 16279
" />
<path d="M4433 12897
L4433 14895
" />
<path d="M4433 12238
L4433 12897
" />
<path d="M4433 11413
L4433 12238
" />
<path d="M4916 10929
L4433 11413
" />
<path d="M8866 11279
L8516 10929
" />
<path d="M8516 10929
L4916 10929
" />
<path d="M9342 11279
L8866 11279
" />
<path d="M12216 12429
L11566 11779
" />
<path d="M11566 11779
L11291 11779
" />
<path d="M14041 12145
L13757 12429
" />
<path d="M13757 12429
L12216 12429
" />
<path d="M15444 12145
L14041 12145
" />
<path d="M12291 13003
L11566 12279
" />
<path d="M12291 14203
L12291 13003
" />
<path d="M13338 14107
L13016 14429
" />
<path d="M11566 12279
L11291 12279
" />
<path d="M12516 14429
L12291 14203
" />
<path d="M13016 14429
L12516 14429
" />
<path d="M13338 13307
L13338 14107
" />
<path d="M14244 12401
L13338 13307
" />
<path d="M15444 12401
L14244 12401
" />
<path d="M18566 14116
L18131 13681
" />
<path d="M9342 12279
L8830 12279
" />
<path d="M16596 17329
L18916 17329
" />
<path d="M18566 14529
L18566 14116
" />
<path d="M19016 17229
L19016 14979
" />
<path d="M18916 17329
L19016 17229
" />
<path d="M18131 13681
L17688 13681
" />
<path d="M16280 17013
L16596 17329
" />
<path d="M13253 17013
L16280 17013
" />
<path d="M8316 14129
L11397 17209
" />
<path d="M8316 12793
L8316 14129
" />
<path d="M19016 14979
L18566 14529
" />
<path d="M13057 17209
L13253 17013
" />
<path d="M8830 12279
L8316 12793
" />
<path d="M11397 17209
L13057 17209
" />
<path d="M9011 12779
L9342 12779
" />
<path d="M15444 13681
L15046 13681
" />
<path d="M15046 13681
L14933 13793
" />
<path d="M14416 14804
L14416 15829
" />
<path d="M14933 14288
L14416 14804
" />
<path d="M8616 13884
L8616 13174
" />
<path d="M10561 15829
L8616 13884
" />
<path d="M14416 15829
L10561 15829
" />
<path d="M14933 13793
L14933 14288
" />
<path d="M8616 13174
L9011 12779
" />
<path d="M16066 11279
L16165 11377
" />
<path d="M16066 9529
L16066 11279
" />
<path d="M13938 9029
L15566 9029
" />
<path d="M16165 11377
L17688 11377
" />
<path d="M15566 9029
L16066 9529
" />
<path d="M13877 9090
L13938 9029
" />
<path d="M12816 10029
L13690 10029
" />
<path d="M13877 9842
L13877 9090
" />
<path d="M11566 11279
L12816 10029
" />
<path d="M13690 10029
L13877 9842
" />
<path d="M11291 11279
L11566 11279
" />
<path d="M14488 12657
L15001 12657
" />
<path d="M13578 13567
L14488 12657
" />
<path d="M15001 12657
L15444 12657
" />
<path d="M13016 14829
L13578 14267
" />
<path d="M11966 14579
L12216 14829
" />
<path d="M13578 14267
L13578 13567
" />
<path d="M12216 14829
L13016 14829
" />
<path d="M11966 13443
L11966 14579
" />
<path d="M11803 13279
L11966 13443
" />
<path d="M11291 13279
L11803 13279
" />
<path d="M16316 3517
L16316 4029
" />
<path d="M15078 2279
L16316 3517
" />
<path d="M12816 2279
L15078 2279
" />
<path d="M11816 3279
L12816 2279
" />
<path d="M11816 4629
L11816 3279
" />
</g>
<g >
</g>
</g>
<g style="fill:#FFFFFF; fill-opacity:0.0; 
stroke:#FFFFFF; stroke-width:118.11; stroke-opacity:1; 
stroke-linecap:round; stroke-linejoin:round;">
</g>
<g style="fill:#FFFFFF; fill-opacity:1.0; 
stroke:#FFFFFF; stroke-width:0; stroke-opacity:1; 
stroke-linecap:round; stroke-linejoin:round;">
<circle cx="8316.93" cy="10029.5" r="157.48" /> 
</g>
<g style="fill:#FFFFFF; fill-opacity:1.0; 
stroke:#FFFFFF; stroke-width:39.3701; stroke-opacity:1; 
stroke-linecap:round; stroke-linejoin:round;">
</g>
<g style="fill:#FFFFFF; fill-opacity:1.0; 
stroke:#FFFFFF; stroke-width:0; stroke-opacity:1; 
stroke-linecap:round; stroke-linejoin:round;">
<circle cx="14437.5" cy="14050.1" r="157.48" /> 
</g>
<g style="fill:#FFFFFF; fill-opacity:1.0; 
stroke:#FFFFFF; stroke-width:39.3701; stroke-opacity:1; 
stroke-linecap:round; stroke-linejoin:round;">
</g>
<g style="fill:#FFFFFF; fill-opacity:1.0; 
stroke:#FFFFFF; stroke-width:0; stroke-opacity:1; 
stroke-linecap:round; stroke-linejoin:round;">
<circle cx="12416.9" cy="16529.5" r="157.48" /> 
</g>
<g style="fill:#FFFFFF; fill-opacity:1.0; 
stroke:#FFFFFF; stroke-width:39.3701; stroke-opacity:1; 
stroke-linecap:round; stroke-linejoin:round;">
</g>
<g style="fill:#FFFFFF; fill-opacity:1.0; 
stroke:#FFFFFF; stroke-width:0; stroke-opacity:1; 
stroke-linecap:round; stroke-linejoin:round;">
<circle cx="16566.9" cy="12029.5" r="157.48" /> 
</g>
<g style="fill:#FFFFFF; fill-opacity:1.0; 
stroke:#FFFFFF; stroke-width:39.3701; stroke-opacity:1; 
stroke-linecap:round; stroke-linejoin:round;">
</g>
<g style="fill:#FFFFFF; fill-opacity:1.0; 
stroke:#FFFFFF; stroke-width:0; stroke-opacity:1; 
stroke-linecap:round; stroke-linejoin:round;">
<circle cx="12816.9" cy="13779.5" r="157.48" /> 
</g>
<g style="fill:#FFFFFF; fill-opacity:1.0; 
stroke:#FFFFFF; stroke-width:39.3701; stroke-opacity:1; 
stroke-linecap:round; stroke-linejoin:round;">
</g>
<g style="fill:#FFFFFF; fill-opacity:1.0; 
stroke:#FFFFFF; stroke-width:0; stroke-opacity:1; 
stroke-linecap:round; stroke-linejoin:round;">
<circle cx="16566.9" cy="13029.5" r="157.48" /> 
</g>
<g style="fill:#FFFFFF; fill-opacity:1.0; 
stroke:#FFFFFF; stroke-width:39.3701; stroke-opacity:1; 
stroke-linecap:round; stroke-linejoin:round;">
</g>
<g style="fill:#FFFFFF; fill-opacity:1.0; 
stroke:#FFFFFF; stroke-width:0; stroke-opacity:1; 
stroke-linecap:round; stroke-linejoin:round;">
<circle cx="17816.9" cy="14529.5" r="157.48" /> 
</g>
<g style="fill:#FFFFFF; fill-opacity:1.0; 
stroke:#FFFFFF; stroke-width:39.3701; stroke-opacity:1; 
stroke-linecap:round; stroke-linejoin:round;">
</g>
<g style="fill:#FFFFFF; fill-opacity:1.0; 
stroke:#FFFFFF; stroke-width:0; stroke-opacity:1; 
stroke-linecap:round; stroke-linejoin:round;">
<circle cx="17066.9" cy="10279.5" r="157.48" /> 
</g>
<g style="fill:#FFFFFF; fill-opacity:1.0; 
stroke:#FFFFFF; stroke-width:39.3701; stroke-opacity:1; 
stroke-linecap:round; stroke-linejoin:round;">
</g>
<g style="fill:#FFFFFF; fill-opacity:1.0; 
stroke:#FFFFFF; stroke-width:0; stroke-opacity:1; 
stroke-linecap:round; stroke-linejoin:round;">
<circle cx="20566.9" cy="15279.5" r="157.48" /> 
</g>
<g style="fill:#FFFFFF; fill-opacity:1.0; 
stroke:#FFFFFF; stroke-width:39.3701; stroke-opacity:1; 
stroke-linecap:round; stroke-linejoin:round;">
</g>
<g style="fill:#FFFFFF; fill-opacity:1.0; 
stroke:#FFFFFF; stroke-width:0; stroke-opacity:1; 
stroke-linecap:round; stroke-linejoin:round;">
<circle cx="7092.52" cy="8858.27" r="157.48" /> 
</g>
<g style="fill:#FFFFFF; fill-opacity:1.0; 
stroke:#FFFFFF; stroke-width:39.3701; stroke-opacity:1; 
stroke-linecap:round; stroke-linejoin:round;">
</g>
<g style="fill:#FFFFFF; fill-opacity:1.0; 
stroke:#FFFFFF; stroke-width:0; stroke-opacity:1; 
stroke-linecap:round; stroke-linejoin:round;">
<circle cx="12316.9" cy="9529.53" r="157.48" /> 
</g>
<g style="fill:#FFFFFF; fill-opacity:1.0; 
stroke:#FFFFFF; stroke-width:39.3701; stroke-opacity:1; 
stroke-linecap:round; stroke-linejoin:round;">
</g>
<g style="fill:#FFFFFF; fill-opacity:1.0; 
stroke:#FFFFFF; stroke-width:0; stroke-opacity:1; 
stroke-linecap:round; stroke-linejoin:round;">
<circle cx="4816.93" cy="4779.53" r="157.48" /> 
</g>
<g style="fill:#FFFFFF; fill-opacity:1.0; 
stroke:#FFFFFF; stroke-width:39.3701; stroke-opacity:1; 
stroke-linecap:round; stroke-linejoin:round;">
</g>
<g style="fill:#FFFFFF; fill-opacity:1.0; 
stroke:#FFFFFF; stroke-width:0; stroke-opacity:1; 
stroke-linecap:round; stroke-linejoin:round;">
<circle cx="20316.9" cy="13129.5" r="157.48" /> 
</g>
<g style="fill:#FFFFFF; fill-opacity:1.0; 
stroke:#FFFFFF; stroke-width:39.3701; stroke-opacity:1; 
stroke-linecap:round; stroke-linejoin:round;">
</g>
<g style="fill:#FFFFFF; fill-opacity:1.0; 
stroke:#FFFFFF; stroke-width:0; stroke-opacity:1; 
stroke-linecap:round; stroke-linejoin:round;">
<circle cx="18177.2" cy="9582.55" r="157.48" /> 
</g>
<g style="fill:#FFFFFF; fill-opacity:1.0; 
stroke:#FFFFFF; stroke-width:39.3701; stroke-opacity:1; 
stroke-linecap:round; stroke-linejoin:round;">
</g>
<g style="fill:#FFFFFF; fill-opacity:1.0; 
stroke:#FFFFFF; stroke-width:0; stroke-opacity:1; 
stroke-linecap:round; stroke-linejoin:round;">
<circle cx="10566.9" cy="14279.5" r="157.48" /> 
</g>
<g style="fill:#FFFFFF; fill-opacity:1.0; 
stroke:#FFFFFF; stroke-width:39.3701; stroke-opacity:1; 
stroke-linecap:round; stroke-linejoin:round;">
</g>
<g style="fill:#FFFFFF; fill-opacity:1.0; 
stroke:#FFFFFF; stroke-width:0; stroke-opacity:1; 
stroke-linecap:round; stroke-linejoin:round;">
<circle cx="7566.93" cy="14279.5" r="157.48" /> 
</g>
<g style="fill:#FFFFFF; fill-opacity:1.0; 
stroke:#FFFFFF; stroke-width:39.3701; stroke-opacity:1; 
stroke-linecap:round; stroke-linejoin:round;">
</g>
<g style="fill:#FFFFFF; fill-opacity:1.0; 
stroke:#FFFFFF; stroke-width:0; stroke-opacity:1; 
stroke-linecap:round; stroke-linejoin:round;">
<circle cx="4669.09" cy="7999.87" r="354.331" /> 
</g>
<g style="fill:#FFFFFF; fill-opacity:1.0; 
stroke:#FFFFFF; stroke-width:39.3701; stroke-opacity:1; 
stroke-linecap:round; stroke-linejoin:round;">
</g>
<g style="fill:#FFFFFF; fill-opacity:1.0; 
stroke:#FFFFFF; stroke-width:0; stroke-opacity:1; 
stroke-linecap:round; stroke-linejoin:round;">
<circle cx="2897.43" cy="7999.87" r="314.961" /> 
</g>
<g style="fill:#FFFFFF; fill-opacity:1.0; 
stroke:#FFFFFF; stroke-width:39.3701; stroke-opacity:1; 
stroke-linecap:round; stroke-linejoin:round;">
</g>
<g style="fill:#000000; fill-opacity:1.0; 
stroke:#000000; stroke-width:39.3701; stroke-opacity:1; 
stroke-linecap:round; stroke-linejoin:round;">
</g> 
</svg>
